<svg width="598" height="169" viewBox="0 0 598 169" fill="none" xmlns="http://www.w3.org/2000/svg">
<path d="M46.3813 3.18383H0.931279V11.1038H19.4713V66.1838H27.7513V11.1038H46.3813V3.18383ZM55.5325 28.7438V21.1838H47.7025V66.1838H55.5325V42.3338C55.5325 31.7138 62.8225 28.2938 69.5725 28.5638V20.3738C63.9025 20.3738 58.4125 22.4438 55.5325 28.7438ZM112.033 21.1838V28.9238C108.433 23.4338 102.673 20.0138 95.0228 20.0138C82.5128 20.0138 72.2528 30.3638 72.2528 43.6838C72.2528 57.0038 82.5128 67.3538 95.0228 67.3538C102.673 67.3538 108.433 63.9338 112.033 58.4438V66.1838H119.863V21.1838H112.033ZM96.0128 59.7938C87.0128 59.7938 80.0828 52.8638 80.0828 43.6838C80.0828 34.5038 87.0128 27.5738 96.0128 27.5738C105.103 27.5738 112.033 34.5038 112.033 43.6838C112.033 52.8638 105.103 59.7938 96.0128 59.7938ZM162.776 21.1838V45.0338C162.776 55.6538 156.926 59.8838 149.726 59.8838C142.796 59.8838 138.566 55.7438 138.566 48.3638V21.1838H130.736V48.8138C130.736 60.3338 137.666 67.3538 148.196 67.3538C154.496 67.3538 159.446 65.0138 162.776 59.7038V66.1838H170.606V21.1838H162.776ZM231.127 20.0138C225.277 20.0138 220.147 22.5338 216.997 27.6638C214.387 22.8038 209.887 20.0138 203.767 20.0138C198.277 20.0138 193.597 22.1738 190.357 27.2138V21.1838H182.527V66.1838H190.357V41.1638C190.357 31.4438 195.847 27.4838 201.877 27.4838C207.727 27.4838 211.417 31.3538 211.417 38.4638V66.1838H219.247V41.1638C219.247 31.4438 224.017 27.4838 230.317 27.4838C236.257 27.4838 240.217 31.3538 240.217 38.4638V66.1838H248.047V38.1938C248.047 26.9438 241.117 20.0138 231.127 20.0138ZM296.164 21.1838V28.9238C292.564 23.4338 286.804 20.0138 279.154 20.0138C266.644 20.0138 256.384 30.3638 256.384 43.6838C256.384 57.0038 266.644 67.3538 279.154 67.3538C286.804 67.3538 292.564 63.9338 296.164 58.4438V66.1838H303.994V21.1838H296.164ZM280.144 59.7938C271.144 59.7938 264.214 52.8638 264.214 43.6838C264.214 34.5038 271.144 27.5738 280.144 27.5738C289.234 27.5738 296.164 34.5038 296.164 43.6838C296.164 52.8638 289.234 59.7938 280.144 59.7938ZM340.337 28.7438V21.1838H328.367V8.58383L320.537 10.9238V21.1838H311.627V28.7438H320.537V53.1338C320.537 64.3838 326.837 67.9838 340.337 66.1838V59.1638C332.327 59.5238 328.367 59.9738 328.367 53.1338V28.7438H340.337ZM368.472 67.3538C381.612 67.3538 392.232 57.0038 392.232 43.6838C392.232 30.3638 381.612 20.0138 368.472 20.0138C355.332 20.0138 344.802 30.3638 344.802 43.6838C344.802 57.0038 355.332 67.3538 368.472 67.3538ZM368.472 59.7038C359.562 59.7038 352.632 52.7738 352.632 43.6838C352.632 34.5938 359.562 27.6638 368.472 27.6638C377.472 27.6638 384.402 34.5938 384.402 43.6838C384.402 52.7738 377.472 59.7038 368.472 59.7038ZM401.462 66.1838H409.292V0.483836H401.462V66.1838ZM442.388 67.3538C455.528 67.3538 466.148 57.0038 466.148 43.6838C466.148 30.3638 455.528 20.0138 442.388 20.0138C429.248 20.0138 418.718 30.3638 418.718 43.6838C418.718 57.0038 429.248 67.3538 442.388 67.3538ZM442.388 59.7038C433.478 59.7038 426.548 52.7738 426.548 43.6838C426.548 34.5938 433.478 27.6638 442.388 27.6638C451.388 27.6638 458.318 34.5938 458.318 43.6838C458.318 52.7738 451.388 59.7038 442.388 59.7038ZM512.728 21.1838V28.9238C509.128 23.4338 503.368 20.0138 495.808 20.0138C483.028 20.0138 472.858 30.3638 472.858 43.4138C472.858 56.5538 483.028 66.9038 495.808 66.9038C503.368 66.9038 509.128 63.3938 512.728 57.9038V64.2938C512.728 72.7538 507.058 78.0638 497.698 78.0638C488.878 78.0638 485.098 74.7338 483.028 70.5038L476.188 74.3738C479.878 81.4838 487.438 85.3538 497.518 85.3538C509.218 85.3538 520.468 78.3338 520.468 64.2938V21.1838H512.728ZM496.708 59.4338C487.618 59.4338 480.688 52.5038 480.688 43.4138C480.688 34.4138 487.618 27.4838 496.708 27.4838C505.798 27.4838 512.728 34.4138 512.728 43.4138C512.728 52.5038 505.798 59.4338 496.708 59.4338ZM532.601 15.3338L536.831 3.18383H546.101L540.161 15.3338H532.601ZM532.331 66.1838H540.161V21.1838H532.331V66.1838ZM589.367 21.1838V28.9238C585.767 23.4338 580.007 20.0138 572.357 20.0138C559.847 20.0138 549.587 30.3638 549.587 43.6838C549.587 57.0038 559.847 67.3538 572.357 67.3538C580.007 67.3538 585.767 63.9338 589.367 58.4438V66.1838H597.197V21.1838H589.367ZM573.347 59.7938C564.347 59.7938 557.417 52.8638 557.417 43.6838C557.417 34.5038 564.347 27.5738 573.347 27.5738C582.437 27.5738 589.367 34.5038 589.367 43.6838C589.367 52.8638 582.437 59.7938 573.347 59.7938ZM36.6613 105.184L23.7013 140.464L8.40128 105.184H0.0312793L19.6513 150.004L18.8413 151.714C16.5013 157.654 12.7213 161.344 6.69128 160.894V168.184C15.8713 168.814 22.8913 163.054 26.6713 152.974L45.0313 105.184H36.6613ZM104.13 151.354C122.4 151.354 136.8 136.774 136.8 118.684C136.8 100.504 122.4 86.0138 104.13 86.0138C85.8596 86.0138 71.5496 100.504 71.5496 118.684C71.5496 136.774 85.8596 151.354 104.13 151.354ZM104.13 143.164C90.3596 143.164 79.8296 132.454 79.8296 118.684C79.8296 104.824 90.3596 94.1138 104.13 94.1138C117.9 94.1138 128.43 104.824 128.43 118.684C128.43 132.454 117.9 143.164 104.13 143.164ZM153.882 112.744V105.184H146.052V150.184H153.882V126.334C153.882 115.714 161.172 112.294 167.922 112.564V104.374C162.252 104.374 156.762 106.444 153.882 112.744ZM201.118 112.744V105.184H189.148V92.5838L181.318 94.9238V105.184H172.408V112.744H181.318V137.134C181.318 148.384 187.618 151.984 201.118 150.184V143.164C193.108 143.524 189.148 143.974 189.148 137.134V112.744H201.118ZM229.253 151.354C242.393 151.354 253.013 141.004 253.013 127.684C253.013 114.364 242.393 104.014 229.253 104.014C216.113 104.014 205.583 114.364 205.583 127.684C205.583 141.004 216.113 151.354 229.253 151.354ZM229.253 143.704C220.343 143.704 213.413 136.774 213.413 127.684C213.413 118.594 220.343 111.664 229.253 111.664C238.253 111.664 245.183 118.594 245.183 127.684C245.183 136.774 238.253 143.704 229.253 143.704ZM287.083 104.014C279.433 104.014 273.673 107.434 270.073 112.924V105.184H262.243V168.184H270.073V142.444C273.673 147.934 279.433 151.354 287.083 151.354C299.593 151.354 309.853 141.004 309.853 127.684C309.853 114.364 299.593 104.014 287.083 104.014ZM286.093 143.794C277.003 143.794 270.073 136.864 270.073 127.684C270.073 118.504 277.003 111.574 286.093 111.574C295.093 111.574 302.023 118.504 302.023 127.684C302.023 136.864 295.093 143.794 286.093 143.794ZM324.687 131.284H362.397C362.577 130.114 362.667 128.944 362.667 127.774C362.667 115.174 353.847 104.014 340.257 104.014C326.217 104.014 316.677 114.364 316.677 127.684C316.677 141.184 326.307 151.354 340.797 151.354C349.797 151.354 356.637 147.304 360.597 141.184L353.937 137.404C351.687 141.094 347.187 143.974 340.977 143.974C332.607 143.974 326.217 139.384 324.687 131.284ZM340.257 111.394C347.007 111.394 353.397 115.534 354.747 124.444H324.687C325.947 116.614 331.797 111.394 340.257 111.394ZM408.839 87.1838V112.924C405.239 107.434 399.479 104.014 391.829 104.014C379.319 104.014 369.059 114.364 369.059 127.684C369.059 141.004 379.319 151.354 391.829 151.354C399.479 151.354 405.239 147.934 408.839 142.444V150.184H416.669V87.1838H408.839ZM392.819 143.794C383.819 143.794 376.889 136.864 376.889 127.684C376.889 118.504 383.819 111.574 392.819 111.574C401.909 111.574 408.839 118.504 408.839 127.684C408.839 136.864 401.909 143.794 392.819 143.794ZM432.493 96.9938C435.373 96.9938 437.713 94.6538 437.713 91.7738C437.713 88.8938 435.373 86.4638 432.493 86.4638C429.523 86.4638 427.183 88.8938 427.183 91.7738C427.183 94.6538 429.523 96.9938 432.493 96.9938ZM428.533 150.184H436.363V105.184H428.533V150.184ZM485.568 105.184V112.924C481.968 107.434 476.208 104.014 468.558 104.014C456.048 104.014 445.788 114.364 445.788 127.684C445.788 141.004 456.048 151.354 468.558 151.354C476.208 151.354 481.968 147.934 485.568 142.444V150.184H493.398V105.184H485.568ZM469.548 143.794C460.548 143.794 453.618 136.864 453.618 127.684C453.618 118.504 460.548 111.574 469.548 111.574C478.638 111.574 485.568 118.504 485.568 127.684C485.568 136.864 478.638 143.794 469.548 143.794Z" fill="#003A59"/>
</svg>
