<svg width="70" height="103" viewBox="0 0 70 103" fill="none" xmlns="http://www.w3.org/2000/svg">
<path d="M68.1696 10.9473L62.4543 2.87846C60.6354 0.310034 57.066 -0.299385 54.4969 1.51986L49.6609 4.94522C43.3782 9.39494 35.9791 11.6668 28.2542 11.5201C25.7034 11.478 23.2437 12.2272 21.153 13.7082C21.1526 13.7086 21.1526 13.7086 21.1526 13.7086C18.5575 15.5468 16.8333 18.286 16.298 21.4205C16.1499 22.2868 16.1012 23.1544 16.1419 24.0116C7.12733 25.993 0.346008 34.238 0.346008 44.0827C0.346008 47.8784 1.3577 51.4341 3.11291 54.4876C1.38672 56.554 0.346008 59.2115 0.346008 62.1081C0.346008 64.6695 1.14756 67.1106 2.6646 69.1683C7.1837 75.2948 9.67241 82.8484 9.67241 90.4369V96.3636C9.67241 99.5115 12.2332 102.072 15.3807 102.072H25.2688C28.4166 102.072 30.977 99.5111 30.977 96.3636V90.4366C30.977 82.7386 33.4004 75.3839 37.9848 69.1676C39.5019 67.1102 40.3034 64.6692 40.3034 62.1078C40.3034 59.2111 39.2624 56.5536 37.5365 54.4872C38.6343 52.5779 39.4429 50.4735 39.8922 48.2346C41.4386 47.899 42.9176 47.2573 44.2478 46.3149C46.3386 44.8343 47.8673 42.7688 48.6685 40.3425C51.0568 33.1132 55.7824 26.7165 61.9747 22.3308L66.8113 18.9055C69.3794 17.0852 69.9888 13.5154 68.1696 10.9473ZM17.4357 28.851C17.6936 29.3516 17.9871 29.8383 18.3183 30.306C20.0602 32.765 22.676 34.4458 25.5653 35.0652C25.1914 37.9956 25.9082 41.022 27.6498 43.4807C29.3686 45.9073 31.8753 47.5721 34.7566 48.2156C34.4614 49.3213 34.0528 50.3787 33.5415 51.3714C31.9834 50.6219 30.2385 50.2013 28.3969 50.2013C25.3839 50.2013 22.4999 51.3651 20.3247 53.3645C18.1496 51.3651 15.2653 50.2013 12.2522 50.2013C10.4106 50.2013 8.66572 50.6219 7.10799 51.3714C5.98722 49.1966 5.34944 46.7156 5.34944 44.0821C5.34944 36.5469 10.5564 30.2509 17.4357 28.851ZM33.9578 66.1979C28.7345 73.2801 25.9733 81.6619 25.9733 90.4366V96.3633C25.9733 96.7519 25.6571 97.0681 25.2685 97.0681H15.3807C14.9921 97.0681 14.6758 96.7519 14.6758 96.3633V90.4366C14.6758 81.7866 11.8402 73.1787 6.69137 66.1983C5.81343 65.0074 5.34944 63.5928 5.34944 62.1078C5.34944 58.3015 8.4459 55.205 12.2522 55.205C14.7015 55.205 16.9171 56.4622 18.1789 58.568C18.6306 59.3225 19.4458 59.7842 20.3251 59.7842C21.2043 59.7842 22.0192 59.3225 22.4712 58.568C23.7327 56.4622 25.9483 55.205 28.3976 55.205C32.2039 55.205 35.3003 58.3015 35.3003 62.1078C35.3 63.5928 34.8357 65.0071 33.9578 66.1979ZM63.9187 14.8223L59.0823 18.2477C52.0242 23.2468 46.6385 30.5361 43.9173 38.7731C43.4536 40.1771 42.5677 41.3732 41.3555 42.2318C39.8508 43.2979 38.0215 43.7135 36.2036 43.4033C34.386 43.0931 32.7983 42.0934 31.7326 40.5887C30.3173 38.59 30.0624 36.0552 31.0514 33.8087C31.406 33.0041 31.3113 32.0725 30.8033 31.355C30.3323 30.6899 29.5694 30.2993 28.7622 30.2993C28.6988 30.2993 28.6348 30.3016 28.5707 30.3063C26.1254 30.4948 23.8171 29.4123 22.4015 27.414C20.2013 24.3078 20.9385 19.9909 24.0446 17.7907C25.2571 16.9321 26.6664 16.4888 28.1581 16.5222C36.9535 16.6939 45.3919 14.0988 52.5529 9.02735L57.3885 5.60233C57.7064 5.37751 58.147 5.45323 58.3715 5.76978L64.0868 13.8387C64.3113 14.1565 64.2359 14.5975 63.9187 14.8223Z" fill="#9CB6BF"/>
<path d="M29.6414 18.2793C26.4032 18.2793 23.7691 20.9138 23.7691 24.152C23.7691 25.534 24.8888 26.6537 26.2708 26.6537C27.6527 26.6537 28.7725 25.534 28.7725 24.152C28.7725 23.6724 29.1624 23.2828 29.6414 23.2828C31.0234 23.2828 32.1432 22.163 32.1432 20.781C32.1432 19.3991 31.0231 18.2793 29.6414 18.2793Z" fill="#9CB6BF"/>
</svg>
