<svg width="158" height="154" viewBox="0 0 158 154" fill="none" xmlns="http://www.w3.org/2000/svg">
<g filter="url(#filter0_d)">
<path d="M25.1669 62.7455C25.1669 37.0527 45.995 16.2246 71.6878 16.2246C114.599 16.2246 135.453 33.4696 132.245 59.9384C132.245 85.6312 106.204 119.694 80.5108 119.694C54.818 119.694 25.1669 88.4383 25.1669 62.7455Z" fill="white"/>
<path d="M130.756 59.7579L130.745 59.8479V59.9384C130.745 72.3372 124.428 86.9488 114.858 98.4936C105.271 110.058 92.7196 118.194 80.5108 118.194C68.2264 118.194 54.7549 110.68 44.2841 99.8136C33.817 88.9513 26.6669 75.0676 26.6669 62.7455C26.6669 37.8811 46.8234 17.7246 71.6878 17.7246C92.9847 17.7246 108.552 22.0109 118.362 29.3564C128.078 36.6314 132.3 47.0169 130.756 59.7579Z" stroke="#36D2FF" stroke-width="3"/>
</g>
<path d="M92.9082 46.3173H90.6968V43.7297C90.6968 43.1241 90.3887 42.5728 89.8743 42.2561C89.3659 41.9425 88.719 41.9147 88.1853 42.1842C86.5318 43.0193 83.1824 43.559 79.6523 43.559C76.122 43.559 72.7727 43.0193 71.1184 42.1838C70.586 41.9153 69.9396 41.9423 69.4307 42.2552C68.9154 42.5728 68.6077 43.1239 68.6077 43.7297V46.3173H66.3963C64.836 46.3173 63.5666 47.5867 63.5666 49.147V51.1135C63.5666 52.6738 64.836 53.9432 66.3963 53.9432H68.6077V55.2346C68.6077 56.2595 69.2067 57.2037 70.1337 57.6401C73.2615 59.1122 78.6117 59.1869 79.6525 59.1869C82.6584 59.1869 86.7366 58.7807 89.1675 57.6408C90.0965 57.2051 90.697 56.2604 90.697 55.2337V53.9432H92.9083C94.4686 53.9432 95.738 52.6738 95.738 51.1135V49.147C95.7378 47.5867 94.4685 46.3173 92.9082 46.3173ZM93.034 51.1135C93.034 51.1829 92.9776 51.2394 92.9082 51.2394H89.3449C88.5981 51.2394 87.9929 51.8445 87.9929 52.5913V55.205C85.956 56.1479 82.2316 56.483 79.6523 56.483C77.0673 56.483 73.3392 56.1483 71.3115 55.2059V52.5915C71.3115 51.8447 70.7064 51.2395 69.9596 51.2395H66.3963C66.3269 51.2395 66.2705 51.1831 66.2705 51.1137V49.147C66.2705 49.0776 66.3269 49.0211 66.3963 49.0211H69.9596C70.7064 49.0211 71.3115 48.416 71.3115 47.6692V45.1685C73.4317 45.8632 76.4149 46.2627 79.6523 46.2627C82.8897 46.2627 85.8733 45.8632 87.9929 45.1687V47.6692C87.9929 48.416 88.5981 49.0211 89.3449 49.0211H92.9082C92.9776 49.0211 93.034 49.0776 93.034 49.147V51.1135Z" fill="url(#paint0_linear)"/>
<path d="M92.5646 63.0101H90.6967V60.4225C90.6967 59.8257 90.3811 59.261 89.8742 58.9489C89.3659 58.6353 88.719 58.6075 88.1852 58.877C86.5317 59.7122 83.1824 60.2518 79.6523 60.2518C76.122 60.2518 72.7726 59.7122 71.1184 58.8767C70.5847 58.6075 69.9377 58.6351 69.4321 58.9475C68.9236 59.2599 68.6076 59.8252 68.6076 60.4227V63.0103H66.7395C64.9897 63.0103 63.5662 64.4336 63.5662 66.1835V67.4635C63.5662 69.2131 64.9895 70.6366 66.7395 70.6366H68.6073V71.9279C68.6073 72.9529 69.2063 73.897 70.1333 74.3334C73.2611 75.8056 78.6113 75.8802 79.6521 75.8802C82.6584 75.8802 86.7367 75.4741 89.1671 74.3342C90.0961 73.8985 90.6966 72.9538 90.6966 71.927V70.6366H92.5644C94.3141 70.6366 95.7376 69.2133 95.7376 67.4635V66.1835C95.7376 64.4334 94.3143 63.0101 92.5646 63.0101ZM93.0338 67.4632C93.0338 67.7218 92.8232 67.9324 92.5644 67.9324H89.3446C88.5978 67.9324 87.9927 68.5375 87.9927 69.2843V71.898C85.9564 72.8409 82.2316 73.176 79.6521 73.176C77.067 73.176 73.339 72.8413 71.3113 71.8989V69.2843C71.3113 68.5375 70.7062 67.9324 69.9594 67.9324H66.7395C66.4806 67.9324 66.2701 67.7218 66.2701 67.4632V66.1832C66.2701 65.9243 66.4806 65.7138 66.7395 65.7138H69.9592C70.706 65.7138 71.3111 65.1087 71.3111 64.3619V61.8612C73.4313 62.5559 76.4145 62.9553 79.6519 62.9553C82.8893 62.9553 85.8729 62.5559 87.9925 61.8613V64.3619C87.9925 65.1087 88.5977 65.7138 89.3445 65.7138H92.5642C92.823 65.7138 93.0336 65.9243 93.0336 66.1832V67.4632H93.0338Z" fill="url(#paint1_linear)"/>
<path d="M73.9048 46.8617C73.158 46.8617 72.5529 47.4668 72.5529 48.2136V53.4108C72.5529 54.1576 73.158 54.7627 73.9048 54.7627C74.6516 54.7627 75.2567 54.1576 75.2567 53.4108V48.2136C75.2567 47.4668 74.6516 46.8617 73.9048 46.8617Z" fill="url(#paint2_linear)"/>
<path d="M73.9048 63.6835C73.158 63.6835 72.5529 64.2887 72.5529 65.0355V70.0523C72.5529 70.7991 73.158 71.4043 73.9048 71.4043C74.6516 71.4043 75.2567 70.7991 75.2567 70.0523V65.0355C75.2567 64.2887 74.6516 63.6835 73.9048 63.6835Z" fill="url(#paint3_linear)"/>
<path d="M92.5646 79.7675H90.6967V77.1797C90.6967 76.5829 90.3811 76.0181 89.873 75.7052C89.3647 75.3926 88.7183 75.3651 88.1852 75.634C86.5317 76.4691 83.1824 77.0088 79.6523 77.0088C76.122 77.0088 72.7726 76.4691 71.1184 75.6337C70.5847 75.3645 69.9377 75.3921 69.4321 75.7045C68.9236 76.0169 68.6076 76.5822 68.6076 77.1797V79.7675H66.7395C64.9897 79.7675 63.5662 81.1908 63.5662 82.9405V84.2205C63.5662 85.9703 64.9895 87.3937 66.7395 87.3937H68.6073V88.6849C68.6073 89.7095 69.2061 90.6537 70.1335 91.0906C73.2617 92.5628 78.6113 92.6374 79.6521 92.6374C82.6582 92.6374 86.7363 92.2313 89.1671 91.0912C90.0961 90.6555 90.6966 89.7108 90.6966 88.684V87.3937H92.5644C94.3141 87.3937 95.7376 85.9704 95.7376 84.2205V82.9405C95.7376 81.1909 94.3143 79.7675 92.5646 79.7675ZM93.0338 84.2203C93.0338 84.4792 92.8232 84.6897 92.5644 84.6897H89.3446C88.5978 84.6897 87.9927 85.2948 87.9927 86.0416V88.6552C85.956 89.5983 82.2314 89.9334 79.6521 89.9334C77.067 89.9334 73.339 89.5986 71.3113 88.6563V86.0416C71.3113 85.2948 70.7062 84.6897 69.9594 84.6897H66.7395C66.4806 84.6897 66.2701 84.4792 66.2701 84.2203V82.9403C66.2701 82.6815 66.4806 82.4711 66.7395 82.4711H69.9592C70.706 82.4711 71.3111 81.866 71.3111 81.1192V78.6185C73.4313 79.3132 76.4145 79.7125 79.6519 79.7125C82.8893 79.7125 85.8729 79.313 87.9925 78.6185V81.1192C87.9925 81.866 88.5977 82.4711 89.3445 82.4711H92.5642C92.823 82.4711 93.0336 82.6815 93.0336 82.9403V84.2203H93.0338Z" fill="url(#paint4_linear)"/>
<path d="M73.9048 80.4408C73.158 80.4408 72.5529 81.0459 72.5529 81.7927V86.8098C72.5529 87.5566 73.158 88.1617 73.9048 88.1617C74.6516 88.1617 75.2567 87.5566 75.2567 86.8098V81.7927C75.2567 81.0459 74.6516 80.4408 73.9048 80.4408Z" fill="url(#paint5_linear)"/>
<defs>
<filter id="filter0_d" x="0.16687" y="0.224579" width="157.399" height="153.469" filterUnits="userSpaceOnUse" color-interpolation-filters="sRGB">
<feFlood flood-opacity="0" result="BackgroundImageFix"/>
<feColorMatrix in="SourceAlpha" type="matrix" values="0 0 0 0 0 0 0 0 0 0 0 0 0 0 0 0 0 0 127 0"/>
<feOffset dy="9"/>
<feGaussianBlur stdDeviation="12.5"/>
<feColorMatrix type="matrix" values="0 0 0 0 0 0 0 0 0 0.30123 0 0 0 0 0.4375 0 0 0 0.13 0"/>
<feBlend mode="normal" in2="BackgroundImageFix" result="effect1_dropShadow"/>
<feBlend mode="normal" in="SourceGraphic" in2="effect1_dropShadow" result="shape"/>
</filter>
<linearGradient id="paint0_linear" x1="82.8319" y1="56.995" x2="77.5751" y2="61.4007" gradientUnits="userSpaceOnUse">
<stop stop-color="#3ADCFF"/>
<stop offset="1" stop-color="#26B2FF"/>
</linearGradient>
<linearGradient id="paint1_linear" x1="82.8315" y1="73.6883" x2="77.5746" y2="78.0939" gradientUnits="userSpaceOnUse">
<stop stop-color="#3ADCFF"/>
<stop offset="1" stop-color="#26B2FF"/>
</linearGradient>
<linearGradient id="paint2_linear" x1="74.172" y1="53.7551" x2="73.4371" y2="53.8677" gradientUnits="userSpaceOnUse">
<stop stop-color="#3ADCFF"/>
<stop offset="1" stop-color="#26B2FF"/>
</linearGradient>
<linearGradient id="paint3_linear" x1="74.172" y1="70.4197" x2="73.4379" y2="70.5348" gradientUnits="userSpaceOnUse">
<stop stop-color="#3ADCFF"/>
<stop offset="1" stop-color="#26B2FF"/>
</linearGradient>
<linearGradient id="paint4_linear" x1="82.8315" y1="90.4454" x2="77.5745" y2="94.851" gradientUnits="userSpaceOnUse">
<stop stop-color="#3ADCFF"/>
<stop offset="1" stop-color="#26B2FF"/>
</linearGradient>
<linearGradient id="paint5_linear" x1="74.172" y1="87.1771" x2="73.4379" y2="87.2922" gradientUnits="userSpaceOnUse">
<stop stop-color="#3ADCFF"/>
<stop offset="1" stop-color="#26B2FF"/>
</linearGradient>
</defs>
</svg>
