<svg width="113" height="109" viewBox="0 0 113 109" fill="none" xmlns="http://www.w3.org/2000/svg">
<g filter="url(#filter0_d)">
<path d="M87.1259 50.7005C87.1259 66.6442 70.5726 74.1267 54.6288 74.1267C38.6851 74.1267 25.7601 61.2017 25.7601 45.258C25.7601 29.3142 38.6851 16.3893 54.6288 16.3893C70.5726 16.3893 87.1259 34.7567 87.1259 50.7005Z" fill="#C6F0FF"/>
</g>
<path d="M65.1667 31.4373H63.7114V29.7344C63.7114 29.3359 63.5087 28.9731 63.1701 28.7647C62.8356 28.5583 62.4098 28.54 62.0586 28.7174C60.9705 29.2669 58.7663 29.6221 56.4432 29.6221C54.1199 29.6221 51.9158 29.2669 50.8272 28.7171C50.4768 28.5404 50.0514 28.5582 49.7165 28.7641C49.3773 28.9731 49.1749 29.3357 49.1749 29.7344V31.4373H47.7196C46.6928 31.4373 45.8574 32.2726 45.8574 33.2994V34.5936C45.8574 35.6204 46.6928 36.4558 47.7196 36.4558H49.1749V37.3056C49.1749 37.9801 49.569 38.6015 50.1791 38.8886C52.2375 39.8574 55.7584 39.9066 56.4433 39.9066C58.4215 39.9066 61.1052 39.6393 62.705 38.8891C63.3164 38.6024 63.7115 37.9807 63.7115 37.305V36.4558H65.1668C66.1936 36.4558 67.0289 35.6204 67.0289 34.5936V33.2994C67.0288 32.2726 66.1935 31.4373 65.1667 31.4373ZM65.2495 34.5936C65.2495 34.6393 65.2123 34.6764 65.1667 34.6764H62.8217C62.3302 34.6764 61.932 35.0747 61.932 35.5661V37.2862C60.5916 37.9067 58.1406 38.1272 56.4432 38.1272C54.742 38.1272 52.2886 37.9069 50.9542 37.2868V35.5662C50.9542 35.0748 50.556 34.6766 50.0645 34.6766H47.7196C47.6739 34.6766 47.6368 34.6394 47.6368 34.5938V33.2994C47.6368 33.2538 47.6739 33.2166 47.7196 33.2166H50.0645C50.556 33.2166 50.9542 32.8184 50.9542 32.327V30.6813C52.3495 31.1385 54.3127 31.4013 56.4432 31.4013C58.5737 31.4013 60.5371 31.1385 61.932 30.6814V32.327C61.932 32.8184 62.3302 33.2166 62.8217 33.2166H65.1667C65.2123 33.2166 65.2495 33.2538 65.2495 33.2994V34.5936Z" fill="#29B6FF"/>
<path d="M64.9404 42.4226H63.7113V40.7198C63.7113 40.327 63.5035 39.9554 63.17 39.75C62.8355 39.5436 62.4097 39.5254 62.0585 39.7027C60.9703 40.2523 58.7662 40.6074 56.4431 40.6074C54.1198 40.6074 51.9157 40.2523 50.827 39.7025C50.4758 39.5254 50.0501 39.5435 49.7173 39.7491C49.3827 39.9547 49.1747 40.3267 49.1747 40.7199V42.4227H47.9453C46.7938 42.4227 45.8571 43.3594 45.8571 44.511V45.3533C45.8571 46.5047 46.7937 47.4415 47.9453 47.4415H49.1745V48.2913C49.1745 48.9658 49.5687 49.5872 50.1788 49.8743C52.2371 50.8431 55.758 50.8923 56.4429 50.8923C58.4213 50.8923 61.1052 50.625 62.7046 49.8748C63.316 49.5881 63.7111 48.9664 63.7111 48.2907V47.4415H64.9403C66.0918 47.4415 67.0286 46.5048 67.0286 45.3533V44.511C67.0286 43.3593 66.0919 42.4226 64.9404 42.4226ZM65.2492 45.3531C65.2492 45.5233 65.1107 45.6619 64.9403 45.6619H62.8215C62.33 45.6619 61.9318 46.0601 61.9318 46.5516V48.2716C60.5917 48.8921 58.1404 49.1127 56.4429 49.1127C54.7417 49.1127 52.2884 48.8924 50.954 48.2722V46.5516C50.954 46.0601 50.5557 45.6619 50.0643 45.6619H47.9453C47.775 45.6619 47.6364 45.5233 47.6364 45.3531V44.5108C47.6364 44.3404 47.775 44.2019 47.9453 44.2019H50.0642C50.5556 44.2019 50.9538 43.8036 50.9538 43.3122V41.6665C52.3491 42.1237 54.3123 42.3866 56.4428 42.3866C58.5733 42.3866 60.5368 42.1237 61.9317 41.6666V43.3122C61.9317 43.8036 62.3299 44.2019 62.8213 44.2019H64.9402C65.1105 44.2019 65.2491 44.3404 65.2491 44.5108V45.3531H65.2492Z" fill="#29B6FF"/>
<path d="M52.6608 31.7955C52.1693 31.7955 51.7711 32.1938 51.7711 32.6852V36.1054C51.7711 36.5968 52.1693 36.9951 52.6608 36.9951C53.1523 36.9951 53.5505 36.5968 53.5505 36.1054V32.6852C53.5505 32.1938 53.1523 31.7955 52.6608 31.7955Z" fill="#29B6FF"/>
<path d="M52.6608 42.8658C52.1693 42.8658 51.7711 43.264 51.7711 43.7555V47.057C51.7711 47.5485 52.1693 47.9467 52.6608 47.9467C53.1523 47.9467 53.5505 47.5485 53.5505 47.057V43.7555C53.5505 43.264 53.1523 42.8658 52.6608 42.8658Z" fill="#29B6FF"/>
<path d="M64.9404 53.4503H63.7113V51.7474C63.7113 51.3546 63.5035 50.983 63.1691 50.777C62.8346 50.5713 62.4092 50.5532 62.0585 50.7302C60.9703 51.2797 58.7662 51.6349 56.4431 51.6349C54.1198 51.6349 51.9157 51.2797 50.827 50.7299C50.4758 50.5528 50.0501 50.571 49.7173 50.7765C49.3827 50.9821 49.1747 51.3541 49.1747 51.7474V53.4503H47.9453C46.7938 53.4503 45.8571 54.387 45.8571 55.5385V56.3808C45.8571 57.5323 46.7937 58.4691 47.9453 58.4691H49.1745V59.3188C49.1745 59.993 49.5686 60.6144 50.1789 60.9019C52.2375 61.8707 55.758 61.9198 56.4429 61.9198C58.4212 61.9198 61.105 61.6526 62.7046 60.9023C63.316 60.6156 63.7111 59.9939 63.7111 59.3182V58.4691H64.9403C66.0918 58.4691 67.0286 57.5324 67.0286 56.3808V55.5385C67.0286 54.3871 66.0919 53.4503 64.9404 53.4503ZM65.2492 56.3807C65.2492 56.551 65.1107 56.6896 64.9403 56.6896H62.8215C62.33 56.6896 61.9318 57.0878 61.9318 57.5793V59.2992C60.5915 59.9198 58.1403 60.1404 56.4429 60.1404C54.7417 60.1404 52.2884 59.9201 50.954 59.2999V57.5793C50.954 57.0878 50.5557 56.6896 50.0643 56.6896H47.9453C47.775 56.6896 47.6364 56.551 47.6364 56.3807V55.5383C47.6364 55.368 47.775 55.2296 47.9453 55.2296H50.0642C50.5556 55.2296 50.9538 54.8313 50.9538 54.3399V52.6942C52.3491 53.1514 54.3123 53.4141 56.4428 53.4141C58.5733 53.4141 60.5368 53.1513 61.9317 52.6942V54.3399C61.9317 54.8313 62.3299 55.2296 62.8213 55.2296H64.9402C65.1105 55.2296 65.2491 55.368 65.2491 55.5383V56.3807H65.2492Z" fill="#29B6FF"/>
<path d="M52.6608 53.8935C52.1693 53.8935 51.7711 54.2917 51.7711 54.7832V58.0848C51.7711 58.5763 52.1693 58.9745 52.6608 58.9745C53.1523 58.9745 53.5505 58.5763 53.5505 58.0848V54.7832C53.5505 54.2917 53.1523 53.8935 52.6608 53.8935Z" fill="#29B6FF"/>
<defs>
<filter id="filter0_d" x="0.760132" y="0.389282" width="111.366" height="107.737" filterUnits="userSpaceOnUse" color-interpolation-filters="sRGB">
<feFlood flood-opacity="0" result="BackgroundImageFix"/>
<feColorMatrix in="SourceAlpha" type="matrix" values="0 0 0 0 0 0 0 0 0 0 0 0 0 0 0 0 0 0 127 0"/>
<feOffset dy="9"/>
<feGaussianBlur stdDeviation="12.5"/>
<feColorMatrix type="matrix" values="0 0 0 0 0 0 0 0 0 0.30123 0 0 0 0 0.4375 0 0 0 0.05 0"/>
<feBlend mode="normal" in2="BackgroundImageFix" result="effect1_dropShadow"/>
<feBlend mode="normal" in="SourceGraphic" in2="effect1_dropShadow" result="shape"/>
</filter>
</defs>
</svg>
