<svg width="45" height="47" viewBox="0 0 45 47" fill="none" xmlns="http://www.w3.org/2000/svg">
<path d="M30.2503 40.6957C39.618 38.1856 41.4083 27.2817 38.8982 17.914C36.3882 8.54625 26.7593 2.98701 17.3915 5.49709C8.0238 8.00717 2.46457 17.636 4.97465 27.0038C7.48473 36.3715 20.8825 43.2057 30.2503 40.6957Z" fill="#35BAFF"/>
<path d="M31.6893 21.7582C31.4395 21.796 31.1944 21.8564 30.9494 21.9157C28.8001 22.437 26.814 23.3249 24.9913 24.5762C23.5934 25.5356 22.3556 26.6716 21.2758 27.9792C20.3912 29.0505 19.6394 30.2084 19.0208 31.4525C18.9791 31.5363 18.9785 31.5358 18.9019 31.4865C17.591 30.6435 16.2804 29.7999 14.9682 28.9588C14.9088 28.9208 14.9007 28.896 14.9348 28.8332C15.9585 26.9489 17.2409 25.2621 18.7911 23.7803C21.193 21.4838 23.9873 19.8628 27.1766 18.9262C28.1016 18.6546 29.0426 18.4564 29.9967 18.32C30.1551 18.2973 30.3144 18.2805 30.4728 18.2575C30.5314 18.2489 30.5586 18.2617 30.5788 18.3242C30.9371 19.4372 31.2987 20.5492 31.66 21.6613C31.6674 21.6841 31.6674 21.711 31.6893 21.7279C31.6893 21.7381 31.6893 21.7482 31.6893 21.7582Z" fill="white"/>
<path d="M24.0554 13.508C24.0821 13.8397 24.1083 14.1714 24.1358 14.5031C24.1687 14.8996 24.2025 15.2959 24.2362 15.6924C24.2742 16.1412 24.3127 16.59 24.3504 17.0387C24.3826 17.4202 24.4141 17.8018 24.4458 18.1833C24.4678 18.4476 24.4855 18.7123 24.5138 18.9761C24.5213 19.0458 24.4977 19.0647 24.4403 19.0843C23.5912 19.375 22.7505 19.6874 21.9342 20.0615C20.6104 20.6683 19.3617 21.4005 18.2181 22.3059C17.7781 22.6543 17.3599 23.0279 16.9654 23.4273C16.9229 23.4704 16.8901 23.4745 16.836 23.4516C15.476 22.8758 14.1153 22.302 12.7548 21.7279C12.7548 21.7178 12.7548 21.7079 12.7548 21.6978C12.7784 21.6823 12.7775 21.655 12.7847 21.6324C13.145 20.5229 13.5051 19.4133 13.8639 18.3033C13.879 18.2564 13.8908 18.2336 13.95 18.2476C15.4208 18.596 16.8922 18.9424 18.3635 19.2887C18.845 19.402 19.327 19.5135 19.8081 19.6288C19.8595 19.6411 19.8747 19.6317 19.8765 19.5806C19.8792 19.5056 19.8869 19.4309 19.8932 19.356C19.9249 18.9746 19.9565 18.5931 19.9885 18.2117C20.0265 17.7605 20.0651 17.3093 20.103 16.8579C20.1353 16.4739 20.1666 16.0899 20.1989 15.7061C20.242 15.1925 20.2852 14.6789 20.3292 14.1654C20.348 13.9461 20.3689 13.7269 20.3887 13.5078C21.6109 13.508 22.8331 13.508 24.0554 13.508Z" fill="white"/>
<path d="M26.2194 31.5406C26.163 31.4425 26.0802 31.3657 26.0076 31.281C25.1054 30.2306 24.2019 29.1811 23.2975 28.1325C23.2647 28.0944 23.2603 28.0666 23.2805 28.0209C23.5149 27.488 23.8325 27.0064 24.1914 26.5512C24.7749 25.811 25.4384 25.1555 26.2311 24.6375C26.2875 24.6006 26.3102 24.6036 26.3464 24.6636C27.2826 26.2169 28.2209 27.769 29.1605 29.3203C29.192 29.372 29.1885 29.3942 29.1384 29.4303C28.1935 30.1141 27.2501 30.8002 26.3069 31.4863C26.286 31.5015 26.2564 31.5095 26.2494 31.5403C26.2394 31.5406 26.2293 31.5406 26.2194 31.5406Z" fill="white"/>
</svg>
