<?xml version="1.0" encoding="utf-8"?>
<!-- Generator: Adobe Illustrator 26.0.2, SVG Export Plug-In . SVG Version: 6.00 Build 0)  -->
<svg version="1.1" id="Layer_1" xmlns="http://www.w3.org/2000/svg" xmlns:xlink="http://www.w3.org/1999/xlink" x="0px" y="0px"
	 viewBox="0 0 27.1 33.9" enable-background="new 0 0 27.1 33.9" xml:space="preserve">
<defs>
	<filter id="Adobe_OpacityMaskFilter" filterUnits="userSpaceOnUse" x="0" y="0" width="27.1" height="33.9">
		<feColorMatrix  type="matrix" values="1 0 0 0 0  0 1 0 0 0  0 0 1 0 0  0 0 0 1 0"/>
	</filter>
</defs>
<mask maskUnits="userSpaceOnUse" x="0" y="0" width="27.1" height="33.9" id="path-5-inside-1_39_2_00000016071638155517650520000000813224562673330838_">
	<path fill="#FFFFFF" filter="url(#Adobe_OpacityMaskFilter)" d="M13.6,1.7C7.1,1.7,1.7,7,1.7,13.6c0,4,1.9,8.4,5.7,12.9
		c2.8,3.3,5.5,5.4,5.6,5.5c0.2,0.1,0.3,0.2,0.5,0.2c0.2,0,0.4-0.1,0.5-0.2c0.1-0.1,2.9-2.2,5.6-5.5c3.8-4.5,5.7-8.8,5.7-12.9
		C25.4,7,20.1,1.7,13.6,1.7z M18,13.6c0,2.4-2,4.4-4.4,4.4c-2.4,0-4.4-2-4.4-4.4c0-2.4,2-4.4,4.4-4.4C16,9.2,18,11.1,18,13.6z"/>
</mask>
<path mask="url(#path-5-inside-1_39_2_00000016071638155517650520000000813224562673330838_)" fill="none" stroke="#35D1FF" stroke-width="3.4862" d="
	M13.6,1.7C7.1,1.7,1.7,7,1.7,13.6c0,4,1.9,8.4,5.7,12.9c2.8,3.3,5.5,5.4,5.6,5.5c0.2,0.1,0.3,0.2,0.5,0.2c0.2,0,0.4-0.1,0.5-0.2
	c0.1-0.1,2.9-2.2,5.6-5.5c3.8-4.5,5.7-8.8,5.7-12.9C25.4,7,20.1,1.7,13.6,1.7z M18,13.6c0,2.4-2,4.4-4.4,4.4c-2.4,0-4.4-2-4.4-4.4
	c0-2.4,2-4.4,4.4-4.4C16,9.2,18,11.1,18,13.6z"/>
</svg>
