<?xml version="1.0" encoding="utf-8"?>
<!-- Generator: Adobe Illustrator 26.0.2, SVG Export Plug-In . SVG Version: 6.00 Build 0)  -->
<svg version="1.1" id="Layer_1" xmlns="http://www.w3.org/2000/svg" xmlns:xlink="http://www.w3.org/1999/xlink" x="0px" y="0px"
	 viewBox="0 0 46 45" enable-background="new 0 0 46 45" xml:space="preserve">
<path fill="#FFFFFF" d="M0.7,20.5C0.7,9.7,9.5,1,20.3,1c18,0,26.8,7.2,25.4,18.4c0,10.8-10.9,25.1-21.7,25.1
	C13.2,44.4,0.7,31.3,0.7,20.5z"/>
<path fill="#1472FF" d="M28.5,14.1c2.6,4.3,5.2,8.5,7.8,12.8c0.5,0.8,0.9,1.5,1.4,2.4c-1.7,0-3.2,0-4.7,0c-0.4,0-0.4-0.3-0.6-0.5
	c-2.6-4.2-5.2-8.4-7.7-12.6c-0.4-0.7-0.8-1.4-1.2-2c0,0,0-0.1,0-0.1C25.2,14,26.8,14,28.5,14.1C28.5,14.1,28.5,14.1,28.5,14.1z"/>
<path fill="#1472FF" d="M13.5,21.8c0,2.3,0,4.7,0,7c0,0.5-0.1,0.6-0.6,0.6c-1.1,0-2.2,0-3.3,0c-0.4,0-0.6,0-0.6-0.5
	c0-4.8,0-9.6,0-14.4C9,14.1,9.1,14,9.5,14c1.2,0,2.3,0,3.5,0c0.5,0,0.6,0.1,0.6,0.6C13.5,17,13.5,19.4,13.5,21.8
	C13.5,21.8,13.5,21.8,13.5,21.8z"/>
<path fill="#1472FF" d="M21,22.6c2,0,4,0,6,0c0.2,0,0.4-0.1,0.6,0.1c0.2,0.2,0.5,0.5,0.5,0.8c-0.1,0.3-0.5,0.1-0.7,0.1
	c-1.2,0-2.4,0-3.5,0c-0.4,0-0.5,0.1-0.5,0.5c0,1.5,0,3.1,0,4.6c0,0.5-0.1,0.6-0.6,0.6c-1.1,0-2.2,0-3.3,0c-0.5,0-0.6-0.1-0.6-0.6
	c0-1.5,0-3,0-4.6c0-0.5-0.1-0.6-0.6-0.6c-1.1,0-2.1,0-3.2,0c-0.3,0-0.7,0.1-0.7-0.5c0-0.6,0.3-0.5,0.7-0.5C17,22.6,19,22.6,21,22.6z
	"/>
<path fill="#1472FF" d="M23.5,14c0,0,0,0.1,0,0.1c-0.2,0.1-0.2,0.3-0.2,0.4c0,1.4,0,2.9,0,4.3c0,0.4,0.1,0.5,0.5,0.5
	c0.4,0,0.8,0,1.2,0c0.8,0,0.8,0,1.1,0.8c-0.1,0.1-0.3,0.1-0.4,0.1c-3.6,0-7.2,0-10.7,0c-0.2,0-0.5,0.2-0.6-0.2c0-0.4,0-0.7,0.5-0.6
	c1.1,0,2.2,0,3.3,0c0.6,0,0.8-0.2,0.7-0.8c0-1.3,0-2.7,0-4c0-0.5,0.1-0.6,0.6-0.6C20.8,14,22.2,14,23.5,14z"/>
<path fill="#1472FF" d="M27.3,21.9c-4.3,0-8.4,0-12.4,0c-0.3,0-0.5-0.1-0.5-0.4c0-0.3,0.1-0.5,0.5-0.5c3.8,0,7.6,0,11.5,0
	C26.9,21,26.9,21.5,27.3,21.9z"/>
<path fill="#1472FF" d="M28.5,14.1C28.5,14.1,28.5,14.1,28.5,14.1L28.5,14.1L28.5,14.1z"/>
</svg>
