<svg width="25" height="31" viewBox="0 0 25 31" fill="none" xmlns="http://www.w3.org/2000/svg">
<path d="M7.34034 24.7268L7.34035 24.7268C9.97404 27.8697 12.5745 29.9252 12.8136 30.1118C13.0548 29.9235 15.6543 27.8684 18.2869 24.7268L18.2869 24.7268C21.9898 20.3081 23.7735 16.1715 23.7735 12.4197L7.34034 24.7268ZM7.34034 24.7268C3.63745 20.3081 1.85379 16.1714 1.85379 12.4196C1.85379 6.38318 6.77044 1.46958 12.8135 1.46958M7.34034 24.7268L12.8135 1.46958M12.8135 1.46958C18.8566 1.46958 23.7732 6.38317 23.7735 12.4196L12.8135 1.46958ZM12.8135 17.669C15.714 17.669 18.0667 15.3193 18.0667 12.4195C18.0667 9.51969 15.714 7.16998 12.8135 7.16998C9.91303 7.16998 7.56038 9.51956 7.56038 12.4195C7.56038 15.3195 9.91303 17.669 12.8135 17.669Z" stroke="#35D1FF" stroke-width="1.74311"/>
</svg>
