<svg width="112" height="109" viewBox="0 0 112 109" fill="none" xmlns="http://www.w3.org/2000/svg">
<g filter="url(#filter0_d)">
<path d="M86.3723 50.957C86.3723 66.9008 69.8191 74.3833 53.8753 74.3833C37.9316 74.3833 25.0066 61.4583 25.0066 45.5146C25.0066 29.5708 37.9316 16.6459 53.8753 16.6459C69.8191 16.6459 86.3723 35.0133 86.3723 50.957Z" fill="#C6F0FF"/>
</g>
<path d="M42.7483 32.5732C40.3962 34.9253 40.3962 38.7526 42.7477 41.1041L47.1537 45.5189L42.7482 49.9244C40.3961 52.2766 40.3961 56.1038 42.7482 58.4559C45.1003 60.808 48.9276 60.8082 51.2797 58.4559L55.6852 54.0504L60.0994 58.4559C62.4515 60.808 66.2788 60.8082 68.6309 58.4559C70.9831 56.1038 70.9831 52.2765 68.6304 49.9238L64.2168 45.5189L68.6211 41.1147C70.9732 38.7625 70.9732 34.9353 68.6211 32.5832C66.2635 30.2256 62.4474 30.2253 60.0896 32.5832L55.6853 36.9874L51.2798 32.5732C48.9277 30.221 45.1004 30.221 42.7483 32.5732ZM67.4122 51.1432C69.0923 52.8233 69.0923 55.5571 67.4122 57.2371C65.7321 58.9173 62.9984 58.9172 61.3176 57.2365L56.9041 52.8317L62.998 46.7377L67.4122 51.1432ZM61.3083 33.8019C62.9923 32.1179 65.7181 32.1177 67.4023 33.8019C69.0862 35.4859 69.0865 38.2116 67.4023 39.8958C66.6217 40.6765 50.8082 56.4899 50.061 57.2371C48.3809 58.9172 45.6472 58.9172 43.9671 57.2371C42.287 55.5569 42.287 52.8233 43.9671 51.1431L48.9805 46.1297C48.9806 46.1297 48.9807 46.1296 48.9808 46.1295L48.9811 46.1292L56.2933 38.817C56.2934 38.8169 56.2934 38.8168 56.2936 38.8168C56.2937 38.8167 56.2937 38.8166 56.2938 38.8165L61.3083 33.8019ZM48.3726 44.3001L43.9671 39.8859C42.287 38.2057 42.287 35.472 43.9671 33.7919C45.6472 32.1119 48.3809 32.1118 50.0605 33.7914L54.4665 38.2062L48.3726 44.3001Z" fill="#29B6FF"/>
<path d="M50.0609 47.487C49.7243 47.8235 49.7243 48.3692 50.0609 48.7057L52.4985 51.1433C52.835 51.4799 53.3807 51.4799 53.7172 51.1433L61.3082 43.5523C61.6448 43.2157 61.6448 42.6701 61.3082 42.3335L58.8707 39.896C58.5341 39.5594 57.9884 39.5594 57.6519 39.896L50.0609 47.487ZM59.48 42.943L53.1079 49.3152L51.8891 48.0964L58.2612 41.7242L59.48 42.943Z" fill="#29B6FF"/>
<path d="M61.3082 38.6771C61.6448 38.3406 61.6448 37.7949 61.3082 37.4584C60.9717 37.1218 60.426 37.1218 60.0895 37.4584C59.7529 37.7949 59.7529 38.3406 60.0895 38.6771C60.426 39.0137 60.9717 39.0137 61.3082 38.6771Z" fill="#29B6FF"/>
<path d="M63.7457 41.1149C64.0823 40.7783 64.0823 40.2327 63.7457 39.8961C63.4092 39.5595 62.8635 39.5595 62.527 39.8961C62.1904 40.2327 62.1904 40.7783 62.527 41.1149C62.8635 41.4514 63.4092 41.4514 63.7457 41.1149Z" fill="#29B6FF"/>
<path d="M63.1364 36.4919C63.6123 36.4919 63.9982 36.1061 63.9982 35.6301C63.9982 35.1542 63.6123 34.7683 63.1364 34.7683C62.6604 34.7683 62.2745 35.1542 62.2745 35.6301C62.2745 36.1061 62.6604 36.4919 63.1364 36.4919Z" fill="#29B6FF"/>
<path d="M66.1834 38.6771C66.5199 38.3406 66.5199 37.7949 66.1834 37.4584C65.8468 37.1218 65.3012 37.1218 64.9646 37.4584C64.628 37.7949 64.628 38.3406 64.9646 38.6771C65.3012 39.0137 65.8468 39.0137 66.1834 38.6771Z" fill="#29B6FF"/>
<path d="M45.7952 53.8331C46.2711 53.8331 46.657 53.4473 46.657 52.9713C46.657 52.4953 46.2711 52.1095 45.7952 52.1095C45.3192 52.1095 44.9333 52.4953 44.9333 52.9713C44.9333 53.4473 45.3192 53.8331 45.7952 53.8331Z" fill="#29B6FF"/>
<path d="M47.6234 54.7997C47.2868 55.1362 47.2868 55.6819 47.6234 56.0184C47.96 56.355 48.5056 56.355 48.8422 56.0184C49.1787 55.6819 49.1787 55.1362 48.8422 54.7997C48.5056 54.4631 47.96 54.4631 47.6234 54.7997Z" fill="#29B6FF"/>
<path d="M48.2327 51.3956C48.7086 51.3956 49.0945 51.0098 49.0945 50.5338C49.0945 50.0578 48.7086 49.672 48.2327 49.672C47.7567 49.672 47.3708 50.0578 47.3708 50.5338C47.3708 51.0098 47.7567 51.3956 48.2327 51.3956Z" fill="#29B6FF"/>
<path d="M50.6703 53.8331C51.1463 53.8331 51.5321 53.4473 51.5321 52.9713C51.5321 52.4953 51.1463 52.1095 50.6703 52.1095C50.1943 52.1095 49.8085 52.4953 49.8085 52.9713C49.8085 53.4473 50.1943 53.8331 50.6703 53.8331Z" fill="#29B6FF"/>
<defs>
<filter id="filter0_d" x="0.0065918" y="0.645874" width="111.366" height="107.737" filterUnits="userSpaceOnUse" color-interpolation-filters="sRGB">
<feFlood flood-opacity="0" result="BackgroundImageFix"/>
<feColorMatrix in="SourceAlpha" type="matrix" values="0 0 0 0 0 0 0 0 0 0 0 0 0 0 0 0 0 0 127 0"/>
<feOffset dy="9"/>
<feGaussianBlur stdDeviation="12.5"/>
<feColorMatrix type="matrix" values="0 0 0 0 0 0 0 0 0 0.30123 0 0 0 0 0.4375 0 0 0 0.05 0"/>
<feBlend mode="normal" in2="BackgroundImageFix" result="effect1_dropShadow"/>
<feBlend mode="normal" in="SourceGraphic" in2="effect1_dropShadow" result="shape"/>
</filter>
</defs>
</svg>
