<svg width="18" height="18" viewBox="0 0 18 18" fill="none" xmlns="http://www.w3.org/2000/svg">
<path d="M15.9311 11.6965C14.9254 11.6965 13.9378 11.5392 13.0021 11.23C12.5435 11.0736 11.9798 11.2171 11.7 11.5045L9.85291 12.8988C7.71085 11.7554 6.39138 10.4364 5.26356 8.31038L6.61687 6.51145C6.96846 6.16032 7.09458 5.6474 6.94348 5.16614C6.63291 4.22544 6.47514 3.2384 6.47514 2.23225C6.47518 1.50539 5.88385 0.914062 5.15704 0.914062H2.14028C1.41347 0.914062 0.822144 1.50539 0.822144 2.2322C0.822144 10.5634 7.59992 17.3411 15.9311 17.3411C16.6579 17.3411 17.2492 16.7498 17.2492 16.023V13.0146C17.2492 12.2879 16.6578 11.6965 15.9311 11.6965Z" fill="white"/>
</svg>
