<svg width="29" height="30" viewBox="0 0 29 30" fill="none" xmlns="http://www.w3.org/2000/svg">
<path d="M20.9693 19.3647L20.9693 19.3647L20.9772 19.3673C22.6783 19.9295 24.4708 20.2145 26.2933 20.2145C27.0631 20.2145 27.6909 20.8423 27.691 21.6122C27.691 21.6122 27.691 21.6123 27.691 21.6123V26.7913C27.691 27.5612 27.0632 28.1891 26.2933 28.1891C12.4318 28.1891 1.15344 16.9108 1.15344 3.04933C1.15344 2.2794 1.78126 1.65158 2.55119 1.65158H7.7448C8.51471 1.65158 9.14251 2.27938 9.14247 3.04935V3.0494C9.14247 4.87071 9.42775 6.65995 9.99045 8.36678C10.1515 8.8863 10.0145 9.42791 9.64215 9.79973L9.59856 9.84325L9.56153 9.89247L7.2317 12.9895L6.89856 13.4323L7.15826 13.9219C9.18199 17.7367 11.5794 20.1323 15.4187 22.1817L15.9099 22.4439L16.3542 22.1085L19.5341 19.708L19.5871 19.668L19.6335 19.6204C19.7307 19.5205 19.9288 19.4019 20.205 19.34C20.4754 19.2795 20.7495 19.2897 20.9693 19.3647Z" stroke="#35D1FF" stroke-width="1.74311"/>
</svg>
