<svg width="159" height="154" viewBox="0 0 159 154" fill="none" xmlns="http://www.w3.org/2000/svg">
<g filter="url(#filter0_d)">
<path d="M133.492 73.193C133.492 98.9858 112.583 119.895 86.7899 119.895C43.7118 119.895 22.7764 102.583 25.9972 76.011C25.9972 50.2182 52.1398 16.0232 77.9326 16.0232C103.725 16.0232 133.492 47.4002 133.492 73.193Z" fill="white"/>
<path d="M27.4863 76.1915L27.4972 76.1016V76.011C27.4972 63.5623 33.8389 48.8925 43.4474 37.3021C53.072 25.6923 65.6737 17.5232 77.9326 17.5232C90.2669 17.5232 103.792 25.0677 114.304 35.9766C124.813 46.8818 131.992 60.8209 131.992 73.193C131.992 98.1573 111.754 118.395 86.7899 118.395C65.4095 118.395 49.7801 114.092 39.9305 106.717C30.1751 99.412 25.9357 88.9841 27.4863 76.1915Z" stroke="#36D2FF" stroke-width="3"/>
</g>
<path d="M65.0447 95.1257C58.745 95.126 53.6388 89.0804 56.5024 80.2784C58.1226 75.2983 58.9103 70.8516 58.9103 66.6842C58.9103 58.9668 55.7268 57.2823 55.7267 48.8987V42.3843C55.7267 41.5052 56.4393 40.7925 57.3185 40.7925H79.6035C80.5388 40.7925 81.2728 41.5961 81.1888 42.5274L78.3987 73.431C78.2194 75.4039 79.2478 77.2501 81.0187 78.1356L95.8971 85.5747H98.7049C101.338 85.5747 103.48 87.717 103.48 90.3501C103.48 92.9832 101.338 95.1255 98.7049 95.1255H81.2521C79.8928 95.1255 78.5347 94.7983 77.3244 94.1794C74.7902 92.8836 71.7576 92.8697 69.212 94.1423C67.9277 94.7842 66.4901 95.1243 65.0545 95.1257C65.0513 95.1257 65.0478 95.1257 65.0447 95.1257ZM58.9103 43.9761V48.8986C58.9104 56.6216 62.0938 58.2919 62.0938 66.6841C62.0938 71.1911 61.2552 75.96 59.5298 81.2632C57.3656 87.9156 60.8427 91.941 65.0513 91.942C65.9965 91.941 66.9429 91.7172 67.7884 91.2946C71.2358 89.5712 75.3424 89.5901 78.7738 91.3449C79.5375 91.7354 80.3944 91.9418 81.2521 91.9418H98.7049C99.5826 91.9418 100.297 91.2277 100.297 90.35C100.297 89.4723 99.5826 88.7582 98.7049 88.7582H95.5213C95.2742 88.7582 95.0305 88.7007 94.8095 88.5902L79.595 80.983C76.6435 79.5073 74.9294 76.4301 75.2281 73.1437L77.8615 43.9761H58.9103Z" fill="url(#paint0_linear)"/>
<path d="M66.8692 82.3911C65.9901 82.3911 65.2774 81.6784 65.2774 80.7993C65.2774 78.1662 67.4196 76.0239 70.0528 76.0239C70.9318 76.0239 71.6445 76.7366 71.6445 77.6157C71.6445 78.4948 70.9318 79.2075 70.0528 79.2075C69.175 79.2075 68.461 79.9216 68.461 80.7993C68.461 81.6784 67.7483 82.3911 66.8692 82.3911Z" fill="url(#paint1_linear)"/>
<defs>
<filter id="filter0_d" x="0.674561" y="0.0231934" width="157.817" height="153.872" filterUnits="userSpaceOnUse" color-interpolation-filters="sRGB">
<feFlood flood-opacity="0" result="BackgroundImageFix"/>
<feColorMatrix in="SourceAlpha" type="matrix" values="0 0 0 0 0 0 0 0 0 0 0 0 0 0 0 0 0 0 127 0"/>
<feOffset dy="9"/>
<feGaussianBlur stdDeviation="12.5"/>
<feColorMatrix type="matrix" values="0 0 0 0 0 0 0 0 0 0.30123 0 0 0 0 0.4375 0 0 0 0.05 0"/>
<feBlend mode="normal" in2="BackgroundImageFix" result="effect1_dropShadow"/>
<feBlend mode="normal" in="SourceGraphic" in2="effect1_dropShadow" result="shape"/>
</filter>
<linearGradient id="paint0_linear" x1="79.5832" y1="40.7925" x2="79.5832" y2="95.1257" gradientUnits="userSpaceOnUse">
<stop stop-color="#3ADCFF"/>
<stop offset="1" stop-color="#26B2FF"/>
</linearGradient>
<linearGradient id="paint1_linear" x1="68.461" y1="76.0239" x2="68.461" y2="82.3911" gradientUnits="userSpaceOnUse">
<stop stop-color="#3ADCFF"/>
<stop offset="1" stop-color="#26B2FF"/>
</linearGradient>
</defs>
</svg>
