<svg width="104" height="101" viewBox="0 0 104 101" fill="none" xmlns="http://www.w3.org/2000/svg">
<path d="M0.070488 45.5824C0.070488 20.8142 20.1491 0.735611 44.9173 0.735611C86.2841 0.735611 106.388 17.3601 103.295 42.8763C103.295 67.6445 78.1909 100.481 53.4227 100.481C28.6545 100.481 0.070488 70.3506 0.070488 45.5824Z" fill="#F2FBFF"/>
<path d="M65.7817 38.2749C64.6803 37.3471 63.2816 36.9037 61.8487 37.0271C60.4138 37.15 59.1129 37.8245 58.1856 38.926L50.1297 48.4928L46.2417 44.4494C44.1815 42.3065 40.7617 42.2394 38.6191 44.2998C37.5809 45.2978 36.9938 46.6403 36.9656 48.0801C36.9373 49.5199 37.4716 50.8845 38.4696 51.9225L46.509 60.2837C47.5199 61.3352 48.9362 61.9382 50.3949 61.9382C50.4536 61.9382 50.5124 61.9371 50.5726 61.9353C52.098 61.885 53.5363 61.1867 54.5188 60.0197L66.4329 45.8711C67.3606 44.7698 67.8037 43.3731 67.6807 41.9382C67.5575 40.5034 66.8832 39.2023 65.7817 38.2749ZM64.5405 44.2772L52.6262 58.426C52.0947 59.0574 51.3165 59.4351 50.4927 59.4623C49.669 59.4883 48.8621 59.1611 48.2925 58.5688L40.2531 50.2076C39.7131 49.6458 39.4241 48.9074 39.4393 48.1285C39.4546 47.3494 39.7722 46.623 40.3338 46.083C40.8987 45.54 41.6274 45.2702 42.3552 45.2702C43.1214 45.2702 43.8867 45.5694 44.4585 46.1641L49.299 51.1982C49.542 51.451 49.8804 51.5876 50.2314 51.5771C50.5819 51.5656 50.911 51.4057 51.1369 51.1376L60.0783 40.5193C60.58 39.9233 61.2838 39.5584 62.0601 39.4919C62.8354 39.4249 63.5922 39.665 64.1882 40.167C64.7842 40.6689 65.1491 41.3729 65.2157 42.1491C65.2822 42.9254 65.0424 43.6813 64.5405 44.2772Z" fill="#29B6FF"/>
<path d="M51.8377 24.4963C38.3385 24.4963 27.3563 35.4786 27.3563 48.9777C27.3563 62.4769 38.3385 73.4593 51.8377 73.4593C65.3368 73.4593 76.3191 62.4769 76.3191 48.9777C76.3191 35.4786 65.3368 24.4963 51.8377 24.4963ZM51.8377 70.9852C39.7027 70.9852 29.8303 61.1127 29.8303 48.9779C29.8303 36.8431 39.7027 26.9704 51.8377 26.9704C63.9726 26.9704 73.845 36.8429 73.845 48.9777C73.845 61.1126 63.9726 70.9852 51.8377 70.9852Z" fill="#29B6FF"/>
<path d="M81.8156 53.2304C82.6078 51.9989 83.5057 50.603 83.5057 48.9778C83.5057 47.3526 82.6078 45.9567 81.8156 44.7253C81.2853 43.9008 80.7844 43.1221 80.6237 42.4163C80.4522 41.6632 80.5669 40.7167 80.6882 39.7144C80.8697 38.2152 81.0574 36.6651 80.3748 35.2523C79.6803 33.8147 78.2754 32.9534 77.0361 32.1934C76.1867 31.6726 75.3845 31.1807 74.9179 30.5972C74.4463 30.0075 74.1419 29.1131 73.8194 28.1662C73.3529 26.7957 72.8241 25.2423 71.5832 24.253C70.3488 23.2688 68.7193 23.0979 67.2817 22.9474C66.2812 22.8425 65.3361 22.7435 64.648 22.4121C63.9835 22.092 63.3295 21.4255 62.637 20.72C61.6146 19.678 60.4557 18.4972 58.8838 18.1404C57.3702 17.7969 55.9091 18.3214 54.4958 18.8286C53.5346 19.1735 52.627 19.4993 51.8377 19.4993C51.0483 19.4993 50.1406 19.1735 49.1795 18.8286C47.7661 18.3213 46.3048 17.7966 44.7914 18.1404C43.2196 18.4973 42.0608 19.6782 41.0382 20.72C40.3459 21.4255 39.692 22.092 39.0274 22.4121C38.3393 22.7435 37.3943 22.8425 36.3937 22.9474C34.956 23.0979 33.3264 23.2687 32.0921 24.2528C30.8514 25.2421 30.3225 26.7954 29.8561 28.1658C29.5337 29.1129 29.2291 30.0074 28.7574 30.5971C28.2908 31.1807 27.4885 31.6726 26.6393 32.1934C25.3998 32.9534 23.995 33.8146 23.3005 35.2523C22.6179 36.665 22.8057 38.2151 22.9872 39.7142C23.1085 40.7164 23.2232 41.6631 23.0516 42.4162C22.8909 43.1221 22.3901 43.9008 21.8597 44.7253C21.0675 45.9569 20.1696 47.3527 20.1696 48.9778C20.1696 50.603 21.0675 51.9989 21.8597 53.2304C22.3901 54.0549 22.8909 54.8336 23.0516 55.5393C23.2231 56.2924 23.1084 57.239 22.9872 58.2412C22.8056 59.7404 22.6179 61.2905 23.3005 62.7033C23.995 64.1409 25.3999 65.0022 26.6393 65.7623C27.4886 66.2831 28.2908 66.7749 28.7574 67.3584C29.229 67.9481 29.5334 68.8425 29.8559 69.7894C30.3224 71.1599 30.8513 72.7133 32.0921 73.7027C33.3266 74.6869 34.956 74.8577 36.3937 75.0082C37.3942 75.1131 38.3393 75.2121 39.0273 75.5435C39.6918 75.8636 40.3459 76.5302 41.0384 77.2356C42.0608 78.2776 43.2196 79.4585 44.7915 79.8152C46.3052 80.1588 47.7663 79.6344 49.1795 79.1271C50.1407 78.7822 51.0483 78.4563 51.8377 78.4563C52.627 78.4563 53.5348 78.7822 54.4958 79.1271C55.5936 79.5211 56.72 79.9253 57.8776 79.9253C58.2104 79.9253 58.5459 79.8918 58.8839 79.8151C60.4557 79.4582 61.6146 78.2773 62.6371 77.2355C63.3295 76.53 63.9834 75.8635 64.6479 75.5434C65.3361 75.212 66.281 75.113 67.2817 75.0081C68.7193 74.8576 70.3489 74.6869 71.5832 73.7027C72.824 72.7134 73.3528 71.1601 73.8193 69.7897C74.1416 68.8426 74.4462 67.9481 74.9179 67.3584C75.3845 66.7748 76.1868 66.2829 77.0361 65.7621C78.2756 65.0021 79.6803 64.1409 80.3748 62.7032C81.0574 61.2905 80.8696 59.7404 80.6882 58.2413C80.5668 57.2391 80.4521 56.2924 80.6237 55.5393C80.7844 54.8336 81.2853 54.0549 81.8156 53.2304ZM79.7349 51.892C79.1123 52.8598 78.4685 53.8606 78.2114 54.9903C77.9445 56.1629 78.0906 57.3707 78.2321 58.539C78.3772 59.7367 78.5141 60.8679 78.1473 61.6272C77.7684 62.4113 76.7846 63.0146 75.7429 63.6532C74.7496 64.2622 73.7224 64.8921 72.9856 65.8135C72.2437 66.7413 71.8541 67.8859 71.4773 68.9927C71.0854 70.1436 70.7154 71.2307 70.041 71.7684C69.372 72.3018 68.2315 72.4212 67.0239 72.5478C65.8569 72.67 64.6501 72.7964 63.5742 73.3147C62.5202 73.8224 61.6819 74.6767 60.8711 75.5028C60.0114 76.3791 59.199 77.2067 58.3363 77.4025C57.5262 77.5867 56.4605 77.2037 55.3315 76.7985C54.2135 76.3973 53.0574 75.9823 51.8377 75.9823C50.618 75.9823 49.4618 76.3972 48.3438 76.7985C47.2149 77.2035 46.1492 77.5866 45.3392 77.4025C44.4762 77.2067 43.6641 76.3791 42.8042 75.5029C41.9933 74.6767 41.1551 73.8224 40.1011 73.3149C39.0252 72.7965 37.8185 72.6701 36.6515 72.5479C35.4439 72.4215 34.3034 72.302 33.6345 71.7684C32.9598 71.2306 32.5897 70.1434 32.1979 68.9924C31.8211 67.8858 31.4315 66.7413 30.6897 65.8136C29.9528 64.8921 28.9257 64.2624 27.9325 63.6532C26.8909 63.0147 25.907 62.4114 25.528 61.6272C25.1611 60.8678 25.2982 59.7366 25.4431 58.5389C25.5846 57.3708 25.7308 56.163 25.464 54.9904C25.2068 53.8608 24.563 52.8599 23.9404 51.8921C23.2736 50.8553 22.6437 49.876 22.6437 48.9778C22.6437 48.0796 23.2736 47.1004 23.9404 46.0636C24.563 45.0959 25.2068 44.095 25.464 42.9653C25.7308 41.7927 25.5847 40.5849 25.4432 39.4167C25.2981 38.219 25.1613 37.0877 25.528 36.3284C25.907 35.5444 26.8908 34.9411 27.9325 34.3024C28.9257 33.6934 29.9529 33.0635 30.6897 32.1421C31.4317 31.2144 31.8212 30.0697 32.198 28.963C32.5899 27.812 32.9599 26.7249 33.6343 26.1872C34.3033 25.6538 35.4439 25.5344 36.6515 25.4079C37.8185 25.2856 39.0252 25.1592 40.1012 24.6409C41.1551 24.1332 41.9935 23.2789 42.8042 22.4528C43.664 21.5765 44.4763 20.7489 45.339 20.5531C46.1492 20.3694 47.215 20.752 48.3438 21.1572C49.4618 21.5583 50.618 21.9734 51.8377 21.9734C53.0574 21.9734 54.2135 21.5585 55.3315 21.1572C56.4605 20.7522 57.5262 20.3689 58.3362 20.5531C59.1991 20.7489 60.0112 21.5765 60.8711 22.4527C61.682 23.2789 62.5202 24.1332 63.5743 24.6408C64.6501 25.1591 65.8569 25.2855 67.0239 25.4077C68.2315 25.5342 69.3719 25.6537 70.0409 26.1872C70.7156 26.7251 71.0857 27.8123 71.4774 28.9632C71.8542 30.0699 72.2438 31.2144 72.9856 32.142C73.7225 33.0635 74.7496 33.6933 75.7429 34.3024C76.7844 34.9409 77.7684 35.5442 78.1473 36.3284C78.5142 37.0878 78.3771 38.2191 78.2323 39.4168C78.0908 40.5848 77.9445 41.7926 78.2114 42.9652C78.4685 44.0949 79.1123 45.0958 79.7349 46.0635C80.4018 47.1005 81.0317 48.0797 81.0317 48.9778C81.0317 49.876 80.4018 50.8553 79.7349 51.892Z" fill="#29B6FF"/>
</svg>
