<svg width="25" height="24" viewBox="0 0 25 24" fill="none" xmlns="http://www.w3.org/2000/svg">
<path d="M3.68171 2.95307C5.55738 1.0774 8.05117 0.0444336 10.7037 0.0444336C13.3561 0.0444336 15.85 1.0774 17.7256 2.95307C20.927 6.15448 21.4812 11.0158 19.3885 14.7922L23.8685 19.2723C24.9178 20.3215 24.9178 22.0287 23.8685 23.0779C23.3603 23.5862 22.6846 23.8661 21.9658 23.8661C21.247 23.8661 20.5713 23.5862 20.063 23.0779L15.6029 18.6178C14.1258 19.4582 12.4491 19.9055 10.7037 19.9055C8.05109 19.9055 5.5573 18.8726 3.68171 16.997C-0.190197 13.125 -0.190197 6.82498 3.68171 2.95307ZM5.43954 15.239C6.84567 16.6451 8.71512 17.4194 10.7036 17.4194C12.692 17.4194 14.5616 16.6451 15.9676 15.239C18.8701 12.3365 18.8701 7.61348 15.9676 4.71098C14.5615 3.30485 12.692 2.53052 10.7036 2.53052C8.71512 2.53052 6.84558 3.30485 5.43954 4.71098C2.53704 7.61356 2.53704 12.3365 5.43954 15.239Z" fill="white"/>
</svg>
