<svg width="20" height="20" viewBox="0 0 20 20" fill="none" xmlns="http://www.w3.org/2000/svg">
<path fill-rule="evenodd" clip-rule="evenodd" d="M1 9.9998C1 5.03686 5.03698 0.999878 9.99993 0.999878V1.00003H10.0052C14.9681 1.00003 19.0051 5.03701 19.0051 9.99995C19.0051 14.9627 14.9681 18.9999 10.0052 18.9999C8.17444 18.9999 6.47602 18.455 5.05281 17.5132L1.59252 18.6188L2.71424 15.275C1.63493 13.7934 1 11.968 1 9.9998ZM6.91537 5.12685C7.17983 5.1376 7.31213 5.15343 7.48669 5.57139C7.54308 5.70749 7.62055 5.89543 7.70544 6.10138C7.94721 6.68788 8.24921 7.42051 8.29617 7.51843C8.35964 7.65073 8.42325 7.83066 8.33321 8.00522C8.25444 8.17261 8.18486 8.25303 8.06902 8.38689C8.06034 8.39693 8.0514 8.40726 8.04217 8.41796C7.98555 8.48365 7.92992 8.54254 7.87442 8.60127C7.80025 8.67978 7.72633 8.75802 7.65065 8.85189C7.64853 8.85438 7.64641 8.85687 7.64428 8.85936C7.52439 9.00003 7.39409 9.15291 7.54492 9.41276C7.69828 9.67198 8.22734 10.5343 9.00517 11.2273C9.92829 12.0483 10.6907 12.3566 11.0345 12.4956C11.0652 12.508 11.0925 12.5191 11.1163 12.529C11.3331 12.619 11.5925 12.5978 11.7512 12.4285C11.9233 12.243 12.1301 11.9529 12.3453 11.651C12.3817 11.5999 12.4183 11.5486 12.455 11.4973C12.6348 11.2433 12.8622 11.2115 13.1004 11.3014C13.3438 11.3861 14.6296 12.021 14.8941 12.1533C14.9481 12.1804 14.9983 12.2045 15.0447 12.2268C15.2252 12.3136 15.3462 12.3718 15.3967 12.4602C15.4603 12.5713 15.4603 13.0951 15.2433 13.709C15.0264 14.3225 14.1639 14.8307 13.4761 14.9788C13.0053 15.0793 12.3914 15.1588 10.3227 14.3016C7.87233 13.287 6.22987 10.9062 5.8958 10.4219C5.8692 10.3833 5.85089 10.3568 5.84113 10.3439C5.83741 10.3388 5.833 10.3328 5.82792 10.3258C5.65983 10.096 4.77242 8.88276 4.77242 7.62952C4.77242 6.37467 5.39226 5.74475 5.66985 5.46264C5.67786 5.4545 5.68559 5.44665 5.693 5.43909C5.90997 5.21689 6.26969 5.1164 6.61374 5.1164C6.71436 5.11689 6.81495 5.12038 6.91537 5.12685Z" fill="#1472FF"/>
</svg>
