<svg width="44" height="47" viewBox="0 0 44 47" fill="none" xmlns="http://www.w3.org/2000/svg">
<path d="M13.8623 40.6957C4.49459 38.1856 2.70429 27.2817 5.21437 17.914C7.72445 8.54625 17.3533 2.98701 26.7211 5.49709C36.0888 8.00717 41.648 17.636 39.138 27.0038C36.6279 36.3715 23.2301 43.2057 13.8623 40.6957Z" fill="#35BAFF"/>
<path fill-rule="evenodd" clip-rule="evenodd" d="M28.2935 16.0863C26.5947 14.386 24.3354 13.4492 21.9283 13.4482C16.9687 13.4482 12.9322 17.4832 12.9302 22.4429C12.9295 24.0283 13.3439 25.5758 14.1313 26.9399L12.8547 31.6012L17.6248 30.3504C18.939 31.067 20.4188 31.4446 21.9247 31.4452H21.9284C26.8875 31.4452 30.9244 27.4097 30.9265 22.4501C30.9274 20.0465 29.9923 17.7865 28.2935 16.0863ZM21.9284 29.926H21.9254C20.5834 29.9255 19.2671 29.5651 18.1189 28.8839L17.8458 28.7218L15.0152 29.4641L15.7707 26.7052L15.5929 26.4223C14.8442 25.232 14.4488 23.8561 14.4494 22.4434C14.4511 18.3212 17.8061 14.9675 21.9314 14.9675C23.929 14.9682 25.8068 15.7469 27.2188 17.1601C28.6308 18.5733 29.408 20.4518 29.4072 22.4495C29.4055 26.572 26.0505 29.926 21.9284 29.926ZM26.0307 24.3265C25.8059 24.214 24.7005 23.6703 24.4944 23.5953C24.2883 23.5203 24.1385 23.4828 23.9886 23.7078C23.8387 23.9328 23.4078 24.4391 23.2766 24.589C23.1455 24.7391 23.0144 24.7578 22.7895 24.6453C22.5647 24.5328 21.8403 24.2955 20.9815 23.5297C20.3131 22.9338 19.8619 22.1977 19.7307 21.9727C19.5996 21.7477 19.7168 21.6261 19.8293 21.514C19.9305 21.4133 20.0542 21.2515 20.1666 21.1202C20.279 20.989 20.3164 20.8953 20.3914 20.7453C20.4663 20.5953 20.4289 20.464 20.3727 20.3515C20.3164 20.239 19.8668 19.1327 19.6794 18.6827C19.497 18.2444 19.3116 18.3037 19.1736 18.2968C19.0426 18.2903 18.8926 18.2889 18.7427 18.2889C18.5928 18.2889 18.3492 18.3452 18.1431 18.5702C17.9371 18.7952 17.3563 19.339 17.3563 20.4452C17.3563 21.5515 18.1619 22.6203 18.2743 22.7703C18.3867 22.9203 19.8597 25.1905 22.115 26.1641C22.6515 26.3957 23.0703 26.5339 23.3968 26.6376C23.9354 26.8086 24.4255 26.7845 24.8129 26.7266C25.2449 26.6621 26.1431 26.1829 26.3305 25.6579C26.5178 25.1328 26.5178 24.6828 26.4616 24.5891C26.4054 24.4953 26.2555 24.4391 26.0307 24.3265Z" fill="white"/>
</svg>
