<svg width="762" height="176" viewBox="0 0 762 176" fill="none" xmlns="http://www.w3.org/2000/svg">
<rect x="124.725" y="59.4092" width="513.688" height="25.5491" rx="10" fill="#A8E2FF"/>
<path d="M29.9213 74.3538C43.6913 74.3538 53.5013 65.7138 53.5013 52.0338V10.1838H45.2213V51.6738C45.2213 60.4038 40.0013 66.1638 29.9213 66.1638C19.8413 66.1638 14.6213 60.4038 14.6213 51.6738V10.1838H6.25128V52.0338C6.25128 65.7138 16.1513 74.3538 29.9213 74.3538ZM87.8996 27.0138C81.5996 27.0138 76.6496 29.3538 73.3196 34.6638V28.1838H65.4896V73.1838H73.3196V49.3338C73.3196 38.7138 79.1696 34.4838 86.3696 34.4838C93.2996 34.4838 97.5296 38.6238 97.5296 46.0038V73.1838H105.36V45.5538C105.36 34.0338 98.4296 27.0138 87.8996 27.0138ZM163.27 35.7438V28.1838H151.3V15.5838L143.47 17.9238V28.1838H134.56V35.7438H143.47V60.1338C143.47 71.3838 149.77 74.9838 163.27 73.1838V66.1638C155.26 66.5238 151.3 66.9738 151.3 60.1338V35.7438H163.27ZM180.634 35.7438V28.1838H172.804V73.1838H180.634V49.3338C180.634 38.7138 187.924 35.2938 194.674 35.5638V27.3738C189.004 27.3738 183.514 29.4438 180.634 35.7438ZM237.134 28.1838V35.9238C233.534 30.4338 227.774 27.0138 220.124 27.0138C207.614 27.0138 197.354 37.3638 197.354 50.6838C197.354 64.0038 207.614 74.3538 220.124 74.3538C227.774 74.3538 233.534 70.9338 237.134 65.4438V73.1838H244.964V28.1838H237.134ZM221.114 66.7938C212.114 66.7938 205.184 59.8638 205.184 50.6838C205.184 41.5038 212.114 34.5738 221.114 34.5738C230.204 34.5738 237.134 41.5038 237.134 50.6838C237.134 59.8638 230.204 66.7938 221.114 66.7938ZM281.307 35.7438V28.1838H269.337V15.5838L261.507 17.9238V28.1838H252.597V35.7438H261.507V60.1338C261.507 71.3838 267.807 74.9838 281.307 73.1838V66.1638C273.297 66.5238 269.337 66.9738 269.337 60.1338V35.7438H281.307ZM325.552 28.1838V35.9238C321.952 30.4338 316.192 27.0138 308.542 27.0138C296.032 27.0138 285.772 37.3638 285.772 50.6838C285.772 64.0038 296.032 74.3538 308.542 74.3538C316.192 74.3538 321.952 70.9338 325.552 65.4438V73.1838H333.382V28.1838H325.552ZM309.532 66.7938C300.532 66.7938 293.602 59.8638 293.602 50.6838C293.602 41.5038 300.532 34.5738 309.532 34.5738C318.622 34.5738 325.552 41.5038 325.552 50.6838C325.552 59.8638 318.622 66.7938 309.532 66.7938ZM393.845 27.0138C387.995 27.0138 382.865 29.5338 379.715 34.6638C377.105 29.8038 372.605 27.0138 366.485 27.0138C360.995 27.0138 356.315 29.1738 353.075 34.2138V28.1838H345.245V73.1838H353.075V48.1638C353.075 38.4438 358.565 34.4838 364.595 34.4838C370.445 34.4838 374.135 38.3538 374.135 45.4638V73.1838H381.965V48.1638C381.965 38.4438 386.735 34.4838 393.035 34.4838C398.975 34.4838 402.935 38.3538 402.935 45.4638V73.1838H410.765V45.1938C410.765 33.9438 403.835 27.0138 393.845 27.0138ZM425.582 19.9938C428.462 19.9938 430.802 17.6538 430.802 14.7738C430.802 11.8938 428.462 9.46384 425.582 9.46384C422.612 9.46384 420.272 11.8938 420.272 14.7738C420.272 17.6538 422.612 19.9938 425.582 19.9938ZM421.622 73.1838H429.452V28.1838H421.622V73.1838ZM446.888 54.2838H484.598C484.778 53.1138 484.868 51.9438 484.868 50.7738C484.868 38.1738 476.048 27.0138 462.458 27.0138C448.418 27.0138 438.878 37.3638 438.878 50.6838C438.878 64.1838 448.508 74.3538 462.998 74.3538C471.998 74.3538 478.838 70.3038 482.798 64.1838L476.138 60.4038C473.888 64.0938 469.388 66.9738 463.178 66.9738C454.808 66.9738 448.418 62.3838 446.888 54.2838ZM462.458 34.3938C469.208 34.3938 475.598 38.5338 476.948 47.4438H446.888C448.148 39.6138 453.998 34.3938 462.458 34.3938ZM516.278 27.0138C509.978 27.0138 505.028 29.3538 501.698 34.6638V28.1838H493.868V73.1838H501.698V49.3338C501.698 38.7138 507.548 34.4838 514.748 34.4838C521.678 34.4838 525.908 38.6238 525.908 46.0038V73.1838H533.738V45.5538C533.738 34.0338 526.808 27.0138 516.278 27.0138ZM569.149 35.7438V28.1838H557.179V15.5838L549.349 17.9238V28.1838H540.439V35.7438H549.349V60.1338C549.349 71.3838 555.649 74.9838 569.149 73.1838V66.1638C561.139 66.5238 557.179 66.9738 557.179 60.1338V35.7438H569.149ZM597.284 74.3538C610.424 74.3538 621.044 64.0038 621.044 50.6838C621.044 37.3638 610.424 27.0138 597.284 27.0138C584.144 27.0138 573.614 37.3638 573.614 50.6838C573.614 64.0038 584.144 74.3538 597.284 74.3538ZM597.284 66.7038C588.374 66.7038 581.444 59.7738 581.444 50.6838C581.444 41.5938 588.374 34.6638 597.284 34.6638C606.284 34.6638 613.214 41.5938 613.214 50.6838C613.214 59.7738 606.284 66.7038 597.284 66.7038ZM11.7413 138.284H49.4513C49.6313 137.114 49.7213 135.944 49.7213 134.774C49.7213 122.174 40.9013 111.014 27.3113 111.014C13.2713 111.014 3.73128 121.364 3.73128 134.684C3.73128 148.184 13.3613 158.354 27.8513 158.354C36.8513 158.354 43.6913 154.304 47.6513 148.184L40.9913 144.404C38.7413 148.094 34.2413 150.974 28.0313 150.974C19.6613 150.974 13.2713 146.384 11.7413 138.284ZM27.3113 118.394C34.0613 118.394 40.4513 122.534 41.8013 131.444H11.7413C13.0013 123.614 18.8513 118.394 27.3113 118.394ZM63.7142 124.334C63.7142 120.284 67.6742 118.304 71.7242 118.304C75.6842 118.304 79.6442 120.014 81.3542 124.064L87.9242 120.374C85.0442 114.524 79.1042 111.014 71.7242 111.014C62.6342 111.014 55.7942 116.504 55.7942 124.424C55.7942 140.714 80.9942 135.224 80.9942 144.854C80.9942 149.264 76.8542 150.974 72.0842 150.974C66.5042 150.974 62.3642 148.274 60.9242 143.954L54.1742 147.824C56.7842 154.034 63.0842 158.354 72.0842 158.354C81.7142 158.354 88.9142 153.224 88.9142 144.854C88.9142 128.294 63.7142 133.964 63.7142 124.334ZM123.025 111.014C115.375 111.014 109.615 114.434 106.015 119.924V112.184H98.1849V175.184H106.015V149.444C109.615 154.934 115.375 158.354 123.025 158.354C135.535 158.354 145.795 148.004 145.795 134.684C145.795 121.364 135.535 111.014 123.025 111.014ZM122.035 150.794C112.945 150.794 106.015 143.864 106.015 134.684C106.015 125.504 112.945 118.574 122.035 118.574C131.035 118.574 137.965 125.504 137.965 134.684C137.965 143.864 131.035 150.794 122.035 150.794ZM160.628 138.284H198.338C198.518 137.114 198.608 135.944 198.608 134.774C198.608 122.174 189.788 111.014 176.198 111.014C162.158 111.014 152.618 121.364 152.618 134.684C152.618 148.184 162.248 158.354 176.738 158.354C185.738 158.354 192.578 154.304 196.538 148.184L189.878 144.404C187.628 148.094 183.128 150.974 176.918 150.974C168.548 150.974 162.158 146.384 160.628 138.284ZM176.198 118.394C182.948 118.394 189.338 122.534 190.688 131.444H160.628C161.888 123.614 167.738 118.394 176.198 118.394ZM228.671 158.354C237.491 158.354 245.141 153.674 248.921 146.654L242.261 142.784C239.741 147.464 234.791 150.614 228.671 150.614C219.671 150.614 212.831 143.684 212.831 134.684C212.831 125.594 219.671 118.664 228.671 118.664C234.701 118.664 239.741 121.814 241.991 126.584L248.561 122.804C245.141 115.694 237.581 111.014 228.671 111.014C215.081 111.014 205.001 121.364 205.001 134.684C205.001 148.004 215.081 158.354 228.671 158.354ZM256.922 106.334L261.152 94.1838H270.422L264.482 106.334H256.922ZM256.652 157.184H264.482V112.184H256.652V157.184ZM312.157 112.184H287.677V110.834C287.677 103.004 291.727 100.574 299.557 100.574C302.437 100.574 305.407 100.844 308.827 101.294V94.1838C305.407 93.4638 302.437 93.0138 299.557 93.0138C286.687 93.0138 279.847 98.8638 279.847 110.834V112.184H272.647V119.744H279.847V157.184H287.677V119.744H304.327V157.184H312.157V112.184ZM345.302 158.354C354.122 158.354 361.772 153.674 365.552 146.654L358.892 142.784C356.372 147.464 351.422 150.614 345.302 150.614C336.302 150.614 329.462 143.684 329.462 134.684C329.462 125.594 336.302 118.664 345.302 118.664C351.332 118.664 356.372 121.814 358.622 126.584L365.192 122.804C361.772 115.694 354.212 111.014 345.302 111.014C331.712 111.014 321.632 121.364 321.632 134.684C321.632 148.004 331.712 158.354 345.302 158.354ZM393.817 158.354C406.957 158.354 417.577 148.004 417.577 134.684C417.577 121.364 406.957 111.014 393.817 111.014C380.677 111.014 370.147 121.364 370.147 134.684C370.147 148.004 380.677 158.354 393.817 158.354ZM393.817 150.704C384.907 150.704 377.977 143.774 377.977 134.684C377.977 125.594 384.907 118.664 393.817 118.664C402.817 118.664 409.747 125.594 409.747 134.684C409.747 143.774 402.817 150.704 393.817 150.704ZM474.148 111.014C466.498 111.014 460.738 114.434 457.138 119.924V112.184H449.308V175.184H457.138V149.444C460.738 154.934 466.498 158.354 474.148 158.354C486.658 158.354 496.918 148.004 496.918 134.684C496.918 121.364 486.658 111.014 474.148 111.014ZM473.158 150.794C464.068 150.794 457.138 143.864 457.138 134.684C457.138 125.504 464.068 118.574 473.158 118.574C482.158 118.574 489.088 125.504 489.088 134.684C489.088 143.864 482.158 150.794 473.158 150.794ZM543.521 112.184V119.924C539.921 114.434 534.161 111.014 526.511 111.014C514.001 111.014 503.741 121.364 503.741 134.684C503.741 148.004 514.001 158.354 526.511 158.354C534.161 158.354 539.921 154.934 543.521 149.444V157.184H551.351V112.184H543.521ZM527.501 150.794C518.501 150.794 511.571 143.864 511.571 134.684C511.571 125.504 518.501 118.574 527.501 118.574C536.591 118.574 543.521 125.504 543.521 134.684C543.521 143.864 536.591 150.794 527.501 150.794ZM571.044 119.744V112.184H563.214V157.184H571.044V133.334C571.044 122.714 578.334 119.294 585.084 119.564V111.374C579.414 111.374 573.924 113.444 571.044 119.744ZM627.544 112.184V119.924C623.944 114.434 618.184 111.014 610.534 111.014C598.024 111.014 587.764 121.364 587.764 134.684C587.764 148.004 598.024 158.354 610.534 158.354C618.184 158.354 623.944 154.934 627.544 149.444V157.184H635.374V112.184H627.544ZM611.524 150.794C602.524 150.794 595.594 143.864 595.594 134.684C595.594 125.504 602.524 118.574 611.524 118.574C620.614 118.574 627.544 125.504 627.544 134.684C627.544 143.864 620.614 150.794 611.524 150.794ZM694.218 119.744V112.184H682.248V99.5838L674.418 101.924V112.184H665.508V119.744H674.418V144.134C674.418 155.384 680.718 158.984 694.218 157.184V150.164C686.208 150.524 682.248 150.974 682.248 144.134V119.744H694.218ZM707.448 103.994C710.328 103.994 712.668 101.654 712.668 98.7738C712.668 95.8938 710.328 93.4638 707.448 93.4638C704.478 93.4638 702.138 95.8938 702.138 98.7738C702.138 101.654 704.478 103.994 707.448 103.994ZM703.488 157.184H711.318V112.184H703.488V157.184Z" fill="#003A59"/>
</svg>
