<svg width="317" height="57" viewBox="0 0 317 57" fill="none" xmlns="http://www.w3.org/2000/svg">
<path d="M20.8148 0.646789C20.8197 1.22718 20.8608 1.80482 20.9844 2.37287C21.094 2.877 21.254 3.36578 21.4631 3.83865C21.8134 4.63133 22.2913 5.33981 22.8903 5.96079C23.4995 6.59192 24.198 7.10511 24.9963 7.48253C25.4693 7.70607 25.9563 7.8775 26.4627 7.999C26.5512 8.02012 26.5871 8.06566 26.5997 8.15617C26.6846 8.77002 26.7573 9.38524 26.8208 10.0018C26.9666 11.4166 26.9965 12.8349 26.9853 14.2555C26.9833 14.4965 26.9866 14.4908 26.7663 14.3904C25.8617 13.979 24.9483 13.5887 24.0089 13.2609C23.1866 12.974 22.3546 12.7197 21.5086 12.5143C20.5964 12.2929 19.6728 12.1333 18.74 12.0255C17.8039 11.9174 16.8653 11.8922 15.9259 11.9268C15.0463 11.9591 14.1748 12.0741 13.3127 12.2573C12.2963 12.4734 11.3155 12.7979 10.3778 13.2436C9.38494 13.7157 8.46856 14.3076 7.64507 15.0416C6.95368 15.6576 6.34668 16.3466 5.83615 17.1184C5.17079 18.1245 4.6989 19.217 4.43829 20.3956C4.26126 21.1957 4.18371 22.0084 4.21577 22.8285C4.25277 23.7817 4.42376 24.7112 4.7211 25.618C5.06309 26.6616 5.56129 27.626 6.19377 28.5208C6.59414 29.0874 7.04082 29.6176 7.53793 30.1028C8.82782 31.3618 11.0264 30.8826 11.6622 29.2007C11.9636 28.4031 11.8907 27.6307 11.4854 26.8805C11.2884 26.5163 10.9853 26.2447 10.7209 25.9395C10.0221 25.1333 9.52881 24.2243 9.36987 23.1604C9.22463 22.1875 9.39809 21.2645 9.873 20.3989C10.5216 19.2167 11.5148 18.4298 12.7274 17.8938C13.6879 17.4693 14.6991 17.2578 15.7429 17.1755C16.3263 17.1294 16.9092 17.1217 17.4921 17.1596C18.4117 17.2197 19.3191 17.3623 20.2165 17.5754C21.2647 17.8242 22.2874 18.1514 23.286 18.553C24.2893 18.9567 25.2679 19.4137 26.2141 19.9384C26.4791 20.0851 26.4816 20.0876 26.435 20.3863C26.3232 21.1066 26.1834 21.8216 26.0387 22.5361C25.8423 23.5063 25.606 24.4663 25.3512 25.4216C25.1372 26.2236 24.893 27.0171 24.6365 27.8068C24.3504 28.6875 24.047 29.5622 23.713 30.4257C23.3493 31.3654 22.9832 32.3051 22.5146 33.1998C21.9161 34.3425 21.2138 35.4141 20.3645 36.3881C19.7636 37.0774 19.1122 37.7129 18.401 38.2864C17.6178 38.9178 16.776 39.4595 15.8802 39.917C14.9271 40.4039 13.9326 40.7832 12.8978 41.055C12.1744 41.2448 11.4405 41.376 10.6968 41.461C9.93301 41.5482 9.16708 41.5669 8.40169 41.5323C7.31075 41.4827 6.23625 41.3099 5.19244 40.9807C4.14863 40.6516 3.27938 40.0509 2.57155 39.2203C2.01032 38.5621 1.63516 37.8017 1.3888 36.9742C1.19615 36.3275 1.00652 35.6799 0.848948 35.0235C0.656299 34.2215 0.495713 33.4132 0.374041 32.5972C0.208248 31.4863 0.104936 30.3703 0.0797246 29.2471C0.0764362 29.102 0.0569795 28.9569 0.0449219 28.812C0.0449219 28.0989 0.0449219 27.386 0.0449219 26.6729C0.0950707 26.6271 0.1011 26.5816 0.0449219 26.5358C0.0449219 26.4993 0.0449219 26.4625 0.0449219 26.426C0.11809 26.4362 0.096989 26.3789 0.100003 26.3443C0.13645 25.9452 0.171253 25.5459 0.20633 25.1465C0.267714 24.4468 0.372397 23.7529 0.497358 23.0625C0.640131 22.2731 0.816611 21.4911 1.02324 20.7151C1.48444 18.9822 2.10349 17.3091 2.88039 15.6933C3.40078 14.6112 3.98969 13.5686 4.63861 12.5587C5.37659 11.4103 6.19733 10.3247 7.09124 9.29473C7.7525 8.53304 8.45759 7.81304 9.1964 7.12623C10.2936 6.10616 11.4671 5.18374 12.7109 4.34964C13.6969 3.68834 14.7229 3.09698 15.7843 2.56679C16.5348 2.19184 17.3032 1.85831 18.0845 1.5522C18.7044 1.30946 19.3341 1.09771 19.9674 0.894194C20.2311 0.80944 20.5048 0.757051 20.7602 0.64624C20.778 0.646789 20.7964 0.646789 20.8148 0.646789Z" fill="#00B9F2"/>
<path d="M56.135 29.334C56.095 29.3869 56.113 29.4486 56.1109 29.5062C56.0845 30.1854 56.0262 30.8618 55.9519 31.5376C55.8439 32.5171 55.6836 33.488 55.4715 34.4494C55.203 35.6661 54.8596 36.8623 54.4346 38.0346C54.1298 38.875 53.7892 39.7009 53.4099 40.5103C53.1874 40.9848 52.9468 41.4508 52.7005 41.9135C52.3124 42.6429 51.8844 43.348 51.4322 44.0381C50.9702 44.7431 50.4769 45.4255 49.9521 46.086C49.4813 46.6787 48.9908 47.2541 48.4764 47.8087C47.9744 48.3502 47.4537 48.8741 46.9029 49.367C46.6651 49.5795 46.4285 49.7937 46.1884 50.0036C46.0539 50.1212 45.9305 50.124 45.7924 50.0247C45.6655 49.9334 45.6322 49.799 45.6922 49.636C45.8676 49.1612 46.0361 48.6843 46.1789 48.1985C46.368 47.5553 46.5141 46.9033 46.6366 46.2437C46.8081 45.3207 46.8878 44.3903 46.8906 43.4547C46.8931 42.6568 46.8256 41.862 46.6911 41.0728C46.4921 39.9058 46.1471 38.7861 45.6396 37.7172C45.188 36.766 44.6187 35.8902 43.9421 35.0836C43.0852 34.0621 42.0895 33.1992 40.9736 32.4751C39.9278 31.7965 38.8111 31.2685 37.6122 30.918C36.8096 30.6835 35.9938 30.5285 35.1601 30.4531C34.5216 30.3952 33.8831 30.3804 33.2457 30.4136C32.0545 30.4756 30.8838 30.6769 29.7367 31.0074C29.6273 31.0389 29.5196 31.0768 29.4092 31.1037C29.3067 31.1286 29.2012 31.1476 29.1149 31.0573C29.0288 30.9671 29.0258 30.8683 29.0661 30.7537C29.5122 29.4794 29.9181 28.1927 30.2757 26.8907C30.5196 26.0025 30.7388 25.1086 30.9416 24.2106C31.0589 23.6908 31.1554 23.1661 31.2546 22.6422C31.2768 22.5251 31.3102 22.4922 31.4313 22.538C32.3324 22.8773 33.2533 23.153 34.1916 23.3683C34.9109 23.5334 35.637 23.6585 36.3706 23.7471C37.2365 23.8516 38.1041 23.9105 38.9756 23.8993C39.9013 23.8872 40.8215 23.8077 41.7376 23.6653C43.219 23.4349 44.6453 23.0183 46.0191 22.4239C47.0629 21.9722 48.0569 21.4277 48.9883 20.7697C49.6 20.3377 50.1823 19.8714 50.726 19.3569C51.3097 18.8044 51.8452 18.2087 52.3264 17.565C52.6158 17.1779 52.8897 16.7802 53.1273 16.3584C53.1835 16.2585 53.2735 16.2149 53.3905 16.2199C53.5179 16.2253 53.5894 16.2978 53.6371 16.4053C53.8448 16.8718 54.0397 17.3439 54.2236 17.8206C54.5817 18.749 54.8914 19.6934 55.1487 20.6545C55.394 21.5706 55.595 22.4966 55.7509 23.4325C55.8814 24.2153 55.9779 25.0025 56.0454 25.7924C56.0807 26.2055 56.1158 26.6199 56.1128 27.036C56.1125 27.089 56.0977 27.1463 56.1352 27.1948C56.135 27.9077 56.135 28.6208 56.135 29.334Z" fill="#00B9F2"/>
<path d="M35.392 0.646973C35.7532 0.756687 36.1152 0.862835 36.475 0.976938C37.6059 1.3357 38.7076 1.76962 39.7843 2.26882C40.6497 2.6701 41.4907 3.11773 42.3084 3.60733C43.4281 4.27796 44.4958 5.02484 45.5108 5.84715C46.2022 6.40724 46.8646 6.99832 47.5036 7.61739C48.0479 8.14456 48.5779 8.68545 49.0591 9.27023C49.4274 9.71786 49.6085 10.2489 49.646 10.8309C49.6833 11.4077 49.5205 11.9431 49.3213 12.4695C49.0585 13.164 48.699 13.8083 48.2515 14.4005C47.6535 15.1915 46.9421 15.8649 46.1321 16.4376C45.6955 16.7464 45.2417 17.0248 44.7654 17.2643C43.8074 17.7456 42.802 18.0915 41.7527 18.3173C41.2131 18.4336 40.6697 18.5208 40.1219 18.5743C39.4042 18.6442 38.684 18.6574 37.9622 18.6201C37.1505 18.5781 36.3481 18.4728 35.5531 18.309C34.4789 18.0877 33.4373 17.7594 32.4269 17.3323C32.3137 17.2843 32.2006 17.2357 32.086 17.1913C32.0167 17.1644 31.9893 17.1216 31.9942 17.0454C32.0285 16.5218 32.06 15.9982 32.0909 15.4746C32.0978 15.3607 32.0986 15.2464 32.1019 15.1323C32.1236 14.3785 32.1397 13.6245 32.123 12.8708C32.1052 12.0723 32.0792 11.2736 32.0161 10.4774C31.9347 9.45071 31.8375 8.42516 31.6681 7.40838C31.65 7.29976 31.6692 7.23201 31.7783 7.16619C32.6787 6.62173 33.4323 5.91983 34.0341 5.05172C34.6225 4.20336 35.0163 3.276 35.221 2.26635C35.3292 1.73259 35.3717 1.19198 35.3649 0.647521C35.3739 0.646973 35.3829 0.646973 35.392 0.646973Z" fill="#00B9F2"/>
<path d="M0.0449219 26.5366C0.101099 26.5824 0.0950708 26.628 0.0449219 26.6738C0.0449219 26.628 0.0449219 26.5822 0.0449219 26.5366Z" fill="#4FB3EB"/>
<path d="M27.9232 56.7341C27.2016 56.7489 26.482 56.7026 25.7643 56.6433C24.8523 56.5679 23.9464 56.4434 23.0456 56.2771C21.9689 56.0786 20.9078 55.8172 19.8632 55.4921C19.08 55.2483 18.3089 54.9699 17.5509 54.6539C16.9403 54.3994 16.3374 54.1289 15.7458 53.8344C14.925 53.4257 14.1276 52.9745 13.3515 52.4854C12.3872 51.8776 11.4615 51.2149 10.5769 50.496C9.58815 49.6924 8.663 48.8196 7.78662 47.8955C7.56411 47.6607 7.35502 47.4131 7.13825 47.1728C7.06317 47.0894 7.03576 46.9981 7.09358 46.8985C7.15278 46.797 7.23471 46.7424 7.36516 46.769C8.02147 46.9034 8.68492 46.9972 9.35275 47.0409C9.90302 47.0768 10.4547 47.0886 11.0074 47.0573C11.7095 47.0175 12.4034 46.9328 13.0926 46.7924C14.0837 46.5902 15.0363 46.2734 15.965 45.876C17.0244 45.4229 18.0239 44.8608 18.9879 44.2333C20.1849 43.454 21.3167 42.5867 22.4274 41.6904C23.179 41.0839 23.9321 40.4794 24.6794 39.8678C25.2932 39.3653 25.9191 38.8779 26.5618 38.4138C27.5387 37.7086 28.5516 37.0574 29.6515 36.5577C30.5726 36.1394 31.529 35.8377 32.5396 35.7184C33.7917 35.5705 35.0128 35.7038 36.2103 36.0843C37.1889 36.395 38.1116 36.8278 38.974 37.3844C39.5076 37.7286 39.9578 38.1672 40.3308 38.6812C40.8372 39.379 41.1786 40.1538 41.4009 40.9863C41.5875 41.6854 41.6875 42.395 41.7297 43.1167C41.7848 44.0583 41.6862 44.9837 41.4886 45.9015C41.2932 46.8099 40.9863 47.6808 40.6073 48.5289C40.1685 49.5108 39.6333 50.434 38.9847 51.2912C38.2826 52.2191 37.4769 53.0455 36.5655 53.7705C35.7193 54.4435 34.8081 55.0094 33.8303 55.4677C32.9367 55.8866 32.0066 56.2047 31.0434 56.4195C30.3492 56.5742 29.6458 56.6674 28.9352 56.7127C28.5976 56.7338 28.2605 56.7275 27.9232 56.7341Z" fill="#00B9F2"/>
<path d="M89.8683 14.9845H80.8574V37.6738H89.8683C96.1241 37.6738 100.792 32.7146 100.792 26.3291C100.792 19.9437 96.1241 14.9845 89.8683 14.9845ZM89.8683 33.3953H85.3304V19.263H89.8683C93.7903 19.263 96.513 22.1478 96.513 26.3291C96.513 30.5105 93.7903 33.3953 89.8683 33.3953ZM107.952 24.2547V21.4671H103.77V37.6738H107.952V29.927C107.952 26.5236 110.707 25.5512 112.878 25.8105V21.143C110.836 21.143 108.794 22.0506 107.952 24.2547ZM115.444 38.0952C116.968 38.0952 118.199 36.8635 118.199 35.3401C118.199 33.8166 116.968 32.5849 115.444 32.5849C113.921 32.5849 112.689 33.8166 112.689 35.3401C112.689 36.8635 113.921 38.0952 115.444 38.0952ZM129.279 38.1276C134.109 38.1276 137.512 35.5345 137.512 31.2884C137.512 26.6533 133.688 25.454 130.09 24.3195C126.654 23.2823 125.779 22.5368 125.779 21.143C125.779 19.8465 126.881 18.8741 128.761 18.8741C131.062 18.8741 132.294 20.0734 133.104 21.7913L136.864 19.6196C135.341 16.4431 132.488 14.5307 128.761 14.5307C124.871 14.5307 121.306 16.9941 121.306 21.2727C121.306 25.5836 124.677 27.0422 128.145 28.0471C131.516 29.0195 133.039 29.6677 133.039 31.3532C133.039 32.6173 132.099 33.7518 129.409 33.7518C126.589 33.7518 125.001 32.3904 124.19 30.2836L120.366 32.5201C121.597 35.8911 124.644 38.1276 129.279 38.1276ZM144.212 31.2884H156.431C156.529 30.7374 156.593 30.1863 156.593 29.5705C156.593 24.8057 153.19 21.0134 148.393 21.0134C143.304 21.0134 139.836 24.7409 139.836 29.5705C139.836 34.4001 143.272 38.1276 148.717 38.1276C151.829 38.1276 154.26 36.8635 155.783 34.6594L152.412 32.7146C151.699 33.6546 150.403 34.3353 148.782 34.3353C146.578 34.3353 144.795 33.4277 144.212 31.2884ZM144.147 28.0471C144.633 25.9726 146.156 24.7733 148.393 24.7733C150.143 24.7733 151.894 25.7133 152.412 28.0471H144.147ZM163.694 24.2547V21.4671H159.512V37.6738H163.694V29.927C163.694 26.5236 166.449 25.5512 168.621 25.8105V21.143C166.579 21.143 164.537 22.0506 163.694 24.2547ZM182.879 21.4671V23.4768C181.744 21.9533 179.994 21.0134 177.693 21.0134C173.09 21.0134 169.622 24.7733 169.622 29.3112C169.622 33.8815 173.09 37.609 177.693 37.609C179.994 37.609 181.744 36.669 182.879 35.1456V36.8959C182.879 39.4566 181.258 40.8828 178.633 40.8828C176.137 40.8828 175.067 39.8779 174.387 38.6138L170.821 40.6559C172.247 43.2813 175.035 44.6103 178.503 44.6103C182.782 44.6103 186.963 42.2117 186.963 36.8959V21.4671H182.879ZM178.341 33.7518C175.716 33.7518 173.803 31.9042 173.803 29.3112C173.803 26.7505 175.716 24.903 178.341 24.903C180.967 24.903 182.879 26.7505 182.879 29.3112C182.879 31.9042 180.967 33.7518 178.341 33.7518ZM192.829 19.5223C194.255 19.5223 195.422 18.3555 195.422 16.9617C195.422 15.5679 194.255 14.3686 192.829 14.3686C191.435 14.3686 190.268 15.5679 190.268 16.9617C190.268 18.3555 191.435 19.5223 192.829 19.5223ZM190.755 37.6738H194.936V21.4671H190.755V37.6738ZM206.477 38.1276C211.242 38.1276 215.067 34.4001 215.067 29.5705C215.067 24.7409 211.242 21.0134 206.477 21.0134C201.713 21.0134 197.92 24.7409 197.92 29.5705C197.92 34.4001 201.713 38.1276 206.477 38.1276ZM206.477 34.0435C204.014 34.0435 202.102 32.196 202.102 29.5705C202.102 26.945 204.014 25.0974 206.477 25.0974C208.973 25.0974 210.886 26.945 210.886 29.5705C210.886 32.196 208.973 34.0435 206.477 34.0435ZM240.374 26.8802V28.0471C240.374 30.8562 239.369 33.2332 237.359 35.178C235.35 37.1012 232.659 38.0628 229.288 38.0628C225.852 38.0628 223.011 36.9283 220.764 34.6594C218.516 32.3904 217.393 29.6137 217.393 26.3291C217.393 23.0446 218.516 20.2678 220.764 17.9989C223.011 15.73 225.852 14.5955 229.288 14.5955C231.384 14.5955 233.308 15.1033 235.058 16.1189C236.808 17.1346 238.159 18.4851 239.11 20.1706L237.1 21.3375C236.387 19.9545 235.328 18.8525 233.923 18.0313C232.519 17.2102 230.974 16.7996 229.288 16.7996C226.458 16.7996 224.145 17.718 222.352 19.5548C220.558 21.3915 219.662 23.6496 219.662 26.3291C219.662 29.0087 220.558 31.2668 222.352 33.1035C224.145 34.9403 226.458 35.8587 229.288 35.8587C231.838 35.8587 233.88 35.2212 235.414 33.9463C236.949 32.6498 237.824 31.0075 238.04 29.0195H229.029V26.8802H240.374ZM257.879 21.4671H260.018V37.6738H257.879V34.4973C256.388 36.8743 254.205 38.0628 251.331 38.0628C249.019 38.0628 247.042 37.2416 245.4 35.5994C243.779 33.9571 242.969 31.9475 242.969 29.5705C242.969 27.1935 243.779 25.1839 245.4 23.5416C247.042 21.8993 249.019 21.0782 251.331 21.0782C254.205 21.0782 256.388 22.2667 257.879 24.6437V21.4671ZM246.956 34.1408C248.187 35.3725 249.7 35.9883 251.493 35.9883C253.287 35.9883 254.8 35.3725 256.031 34.1408C257.263 32.8875 257.879 31.364 257.879 29.5705C257.879 27.7769 257.263 26.2643 256.031 25.0326C254.8 23.7793 253.287 23.1526 251.493 23.1526C249.7 23.1526 248.187 23.7793 246.956 25.0326C245.724 26.2643 245.108 27.7769 245.108 29.5705C245.108 31.364 245.724 32.8875 246.956 34.1408ZM266.687 24.1575C267.681 22.191 269.388 21.2078 271.808 21.2078V23.2823C270.339 23.2823 269.118 23.7145 268.146 24.5788C267.173 25.4432 266.687 26.8045 266.687 28.6629V37.6738H264.548V21.4671H266.687V24.1575ZM281.311 38.0628C278.869 38.0628 276.838 37.2525 275.218 35.6318C273.597 33.9895 272.787 31.9691 272.787 29.5705C272.787 27.1719 273.597 25.1623 275.218 23.5416C276.838 21.8993 278.869 21.0782 281.311 21.0782C282.91 21.0782 284.347 21.4671 285.622 22.2451C286.897 23.0014 287.826 24.0278 288.41 25.3243L286.659 26.3291C286.227 25.3567 285.525 24.5896 284.553 24.0278C283.602 23.4444 282.521 23.1526 281.311 23.1526C279.518 23.1526 278.005 23.7793 276.773 25.0326C275.542 26.2643 274.926 27.7769 274.926 29.5705C274.926 31.364 275.542 32.8875 276.773 34.1408C278.005 35.3725 279.518 35.9883 281.311 35.9883C282.521 35.9883 283.602 35.7074 284.553 35.1456C285.503 34.5621 286.249 33.7842 286.789 32.8118L288.572 33.849C287.902 35.1456 286.919 36.172 285.622 36.9283C284.326 37.6846 282.889 38.0628 281.311 38.0628ZM291.741 19.1982H293.815L295.954 14.9845H293.361L291.741 19.1982ZM291.643 37.6738V21.4671H293.783V37.6738H291.643ZM312.26 21.4671H314.399V37.6738H312.26V34.4973C310.769 36.8743 308.586 38.0628 305.712 38.0628C303.4 38.0628 301.423 37.2416 299.781 35.5994C298.16 33.9571 297.35 31.9475 297.35 29.5705C297.35 27.1935 298.16 25.1839 299.781 23.5416C301.423 21.8993 303.4 21.0782 305.712 21.0782C308.586 21.0782 310.769 22.2667 312.26 24.6437V21.4671ZM301.337 34.1408C302.568 35.3725 304.081 35.9883 305.875 35.9883C307.668 35.9883 309.181 35.3725 310.412 34.1408C311.644 32.8875 312.26 31.364 312.26 29.5705C312.26 27.7769 311.644 26.2643 310.412 25.0326C309.181 23.7793 307.668 23.1526 305.875 23.1526C304.081 23.1526 302.568 23.7793 301.337 25.0326C300.105 26.2643 299.489 27.7769 299.489 29.5705C299.489 31.364 300.105 32.8875 301.337 34.1408Z" fill="#00567F"/>
</svg>
