<svg width="667" height="86" viewBox="0 0 667 86" fill="none" xmlns="http://www.w3.org/2000/svg">
<path d="M33.6713 67.6101C45.3713 67.6101 55.6313 61.4901 60.8513 52.2201L53.5613 48.0801C49.9613 54.9201 42.3113 59.4201 33.6713 59.4201C18.9113 59.4201 9.01128 48.7101 9.01128 34.9401C9.01128 21.0801 18.9113 10.3701 33.6713 10.3701C42.3113 10.3701 49.9613 14.8701 53.5613 21.8001L60.8513 17.5701C55.5413 8.30006 45.2813 2.27006 33.6713 2.27006C14.4113 2.27006 0.73128 16.7601 0.73128 34.9401C0.73128 53.0301 14.4113 67.6101 33.6713 67.6101ZM73.7445 13.2501C76.6245 13.2501 78.9645 10.9101 78.9645 8.03006C78.9645 5.15006 76.6245 2.72006 73.7445 2.72006C70.7745 2.72006 68.4345 5.15006 68.4345 8.03006C68.4345 10.9101 70.7745 13.2501 73.7445 13.2501ZM69.7845 66.4401H77.6145V21.4401H69.7845V66.4401ZM97.3899 29.0001V21.4401H89.5599V66.4401H97.3899V42.5901C97.3899 31.9701 104.68 28.5501 111.43 28.8201V20.6301C105.76 20.6301 100.27 22.7001 97.3899 29.0001ZM150.141 21.4401V45.2901C150.141 55.9101 144.291 60.1401 137.091 60.1401C130.161 60.1401 125.931 56.0001 125.931 48.6201V21.4401H118.101V49.0701C118.101 60.5901 125.031 67.6101 135.561 67.6101C141.861 67.6101 146.811 65.2701 150.141 59.9601V66.4401H157.971V21.4401H150.141ZM207.242 21.4401V29.1801C203.642 23.6901 197.882 20.2701 190.322 20.2701C177.542 20.2701 167.372 30.6201 167.372 43.6701C167.372 56.8101 177.542 67.1601 190.322 67.1601C197.882 67.1601 203.642 63.6501 207.242 58.1601V64.5501C207.242 73.0101 201.572 78.3201 192.212 78.3201C183.392 78.3201 179.612 74.9901 177.542 70.7601L170.702 74.6301C174.392 81.7401 181.952 85.6101 192.032 85.6101C203.732 85.6101 214.982 78.5901 214.982 64.5501V21.4401H207.242ZM191.222 59.6901C182.132 59.6901 175.202 52.7601 175.202 43.6701C175.202 34.6701 182.132 27.7401 191.222 27.7401C200.312 27.7401 207.242 34.6701 207.242 43.6701C207.242 52.7601 200.312 59.6901 191.222 59.6901ZM227.115 15.5901L231.345 3.44006H240.615L234.675 15.5901H227.115ZM226.845 66.4401H234.675V21.4401H226.845V66.4401ZM283.88 21.4401V29.1801C280.28 23.6901 274.52 20.2701 266.87 20.2701C254.36 20.2701 244.1 30.6201 244.1 43.9401C244.1 57.2601 254.36 67.6101 266.87 67.6101C274.52 67.6101 280.28 64.1901 283.88 58.7001V66.4401H291.71V21.4401H283.88ZM267.86 60.0501C258.86 60.0501 251.93 53.1201 251.93 43.9401C251.93 34.7601 258.86 27.8301 267.86 27.8301C276.95 27.8301 283.88 34.7601 283.88 43.9401C283.88 53.1201 276.95 60.0501 267.86 60.0501ZM368.374 66.4401H377.284L353.794 3.44006H344.344L320.854 66.4401H329.764L334.894 52.3101H363.244L368.374 66.4401ZM337.774 44.4801L349.024 13.4301L360.364 44.4801H337.774ZM391.736 29.0001V21.4401H383.906V66.4401H391.736V42.5901C391.736 31.9701 399.026 28.5501 405.776 28.8201V20.6301C400.106 20.6301 394.616 22.7001 391.736 29.0001ZM438.972 29.0001V21.4401H427.002V8.84006L419.172 11.1801V21.4401H410.262V29.0001H419.172V53.3901C419.172 64.6401 425.472 68.2401 438.972 66.4401V59.4201C430.962 59.7801 427.002 60.2301 427.002 53.3901V29.0001H438.972ZM452.202 13.2501C455.082 13.2501 457.422 10.9101 457.422 8.03006C457.422 5.15006 455.082 2.72006 452.202 2.72006C449.232 2.72006 446.892 5.15006 446.892 8.03006C446.892 10.9101 449.232 13.2501 452.202 13.2501ZM448.242 66.4401H456.072V21.4401H448.242V66.4401ZM489.167 67.6101C497.987 67.6101 505.637 62.9301 509.417 55.9101L502.757 52.0401C500.237 56.7201 495.287 59.8701 489.167 59.8701C480.167 59.8701 473.327 52.9401 473.327 43.9401C473.327 34.8501 480.167 27.9201 489.167 27.9201C495.197 27.9201 500.237 31.0701 502.487 35.8401L509.057 32.0601C505.637 24.9501 498.077 20.2701 489.167 20.2701C475.577 20.2701 465.497 30.6201 465.497 43.9401C465.497 57.2601 475.577 67.6101 489.167 67.6101ZM548.286 21.4401V45.2901C548.286 55.9101 542.436 60.1401 535.236 60.1401C528.306 60.1401 524.076 56.0001 524.076 48.6201V21.4401H516.246V49.0701C516.246 60.5901 523.176 67.6101 533.706 67.6101C540.006 67.6101 544.956 65.2701 548.286 59.9601V66.4401H556.116V21.4401H548.286ZM568.036 66.4401H575.866V0.740062H568.036V66.4401ZM625.072 21.4401V29.1801C621.472 23.6901 615.712 20.2701 608.062 20.2701C595.552 20.2701 585.292 30.6201 585.292 43.9401C585.292 57.2601 595.552 67.6101 608.062 67.6101C615.712 67.6101 621.472 64.1901 625.072 58.7001V66.4401H632.902V21.4401H625.072ZM609.052 60.0501C600.052 60.0501 593.122 53.1201 593.122 43.9401C593.122 34.7601 600.052 27.8301 609.052 27.8301C618.142 27.8301 625.072 34.7601 625.072 43.9401C625.072 53.1201 618.142 60.0501 609.052 60.0501ZM652.595 29.0001V21.4401H644.765V66.4401H652.595V42.5901C652.595 31.9701 659.885 28.5501 666.635 28.8201V20.6301C660.965 20.6301 655.475 22.7001 652.595 29.0001Z" fill="#003A59"/>
</svg>
